# Generated on 23-07-11 14:13:53 by differentials/theory/scalecorrelation.py; current git commit: fda3df8 bunch of additions for debugging
+1.0000 +0.9278 +0.9149
+0.9278 +1.0000 +0.9977
+0.9149 +0.9977 +1.0000
