file=suppliedInput/fromQianying/13tev-pth_quarkInduced_Apr18/higgs_plus_jet_13tev_2_m5.pth
kappab=2.0
kappac=-5.0
muR=1.0
muF=1.0
Q=1.0
binBoundaries=0.0,5.0,10.0,15.0,20.0,25.0,30.0,35.0,40.0,45.0,50.0,55.0,60.0,65.0,70.0,75.0,80.0,85.0,90.0,95.0,100.0,105.0,110.0,115.0,120.0
binCenters=3.0,7.5,12.5,17.5,22.5,27.5,32.5,37.5,42.5,47.5,52.5,57.5,62.5,67.5,72.5,77.5,82.5,87.5,92.5,97.5,102.5,107.5,112.5,117.5
crosssection=0.522037574,1.0109910118589625,1.2055333630973935,1.157994149719195,0.9300898043817893,0.7466144045606393,0.6073240766453245,0.48726963488434993,0.3975698156441572,0.3276030327640341,0.272555199160028,0.23227466735731714,0.2007618100809144,0.173915591982286,0.15169418667019777,0.13205750866073354,0.11754663601579207,0.10415532984788807,0.09186877230422165,0.08108582447127922,0.07304737693216326,0.06485426143104824,0.05821809739580838,0.05205663947473083
crosssection_integrated=2.61018787,5.054955059294812,6.027666815486967,5.789970748595975,4.650449021908947,3.7330720228031966,3.0366203832266225,2.4363481744217497,1.987849078220786,1.6380151638201703,1.3627759958001402,1.1613733367865857,1.003809050404572,0.86957795991143,0.7584709333509888,0.6602875433036677,0.5877331800789604,0.5207766492394403,0.45934386152110823,0.4054291223563961,0.3652368846608163,0.32427130715524116,0.29109048697904194,0.2602831973736542
ratios=0.990392781122,1.0331597941550792,1.1202554270604008,1.1704252200059435,1.124575997370113,1.0982076196669617,1.0922765950555429,1.0761415070705675,1.0723773347544454,1.069051411454519,1.0612345576243039,1.0581621604116174,1.0570400233382033,1.04506760007271,1.0485132779412,1.0401071949065426,1.045358610281289,1.0484455536396022,1.0441776779665903,1.0373951465177678,1.045795517053724,1.0367976025687282,1.0367945575787891,1.0326837578358505