file=suppliedInput/fromAgnieszka/SMEFTscaling_May16/ratio_ctcg05_new
ct=0.5
cg=0.042
cb=1.0
muR=1.0
muF=1.0
Q=1.0
binBoundaries=1.0,6.0,11.0,16.0,21.0,26.0,31.0,36.0,41.0,46.0,51,60.0,70.0,80.0,90.0,100.0,110.0,120.0,130.0,140.0,150.0,160.0,170.0,180.0,190.0,200.0,210.0,220.0,230.0,240.0,250.0,260.0,270.0,280.0,290.0,300.0,310.0,320.0,330.0,340.0,350.0,360.0,370.0,380.0,390.0,400.0,410.0,420.0,430.0,440.0,450.0,460.0,470.0,480.0,490.0,500.0,510.0,520.0,530.0,540.0,550.0,560.0,570.0,580.0,590.0,600.0,610.0,620.0,630.0,640.0,650.0,660.0,670.0,675.0,680.0,690.0,700.0,710.0,720.0,730.0,740.0,750.0,760.0,770.0,780.0,790.0,800.0
binCenters=3.5,8.5,13.5,18.5,23.5,28.5,33.5,38.5,43.5,48.5,55.0,65.0,75.0,85.0,95.0,105.0,115.0,125.0,135.0,145.0,155.0,165.0,175.0,185.0,195.0,205.0,215.0,225.0,235.0,245.0,255.0,265.0,275.0,285.0,295.0,305.0,315.0,325.0,335.0,345.0,355.0,365.0,375.0,385.0,395.0,401.0,410.0,420.0,430.0,440.0,450.0,460.0,470.0,480.0,490.0,500.0,510.0,520.0,530.0,540.0,550.0,560.0,570.0,580.0,590.0,600.0,610.0,620.0,630.0,640.0,650.0,660.0,670.0,675.0,680.0,690.0,700.0,710.0,720.0,730.0,740.0,750.0,760.0,770.0,780.0,790.0
crosssection=0.449261367093,0.865747360689,0.896574719331,0.811545543187,0.686563696098,0.595306345482,0.458644291986,0.432220508478,0.364163945736,0.285787052529,0.245527277663,0.182673245632,0.133461227606,0.102076183432,0.0778693509483,0.0648207727412,0.0491603716758,0.0384145547229,0.031931698083,0.0256625250455,0.0209302572274,0.017833639933,0.0150557588681,0.0124127422497,0.0104544122075,0.00894516895445,0.00746914718005,0.00597350600237,0.00579362117476,0.00472203111878,0.00414136599066,0.00406118817551,0.00255384493282,0.00258792652899,0.00243734316982,0.00205020343618,0.00189452397619,0.00157339356873,0.00151183854699,0.00118152892368,0.00114082523894,0.00112458687076,0.000823241705154,0.000841680046167,0.000799407101907,0.000534253201121,0.00070134610727,0.000599684557789,0.000540342819714,0.000529516324367,0.000428766202926,0.000405172943098,0.000315351159493,0.000386252586528,0.000298553575565,0.000270402496256,0.000329268127841,0.00018802017834,0.00021646149748,0.000190797385792,0.000228637307959,0.000156506410132,0.000182662585057,0.000162432279765,0.000119990935322,0.000151932535004,0.000117292590787,0.000109360442796,0.000122114236115,8.82474399426e-05,8.84570799385e-05,9.98607698326e-05,9.498233494855e-05,9.01039000645e-05,8.55360996418e-05,6.26653470097e-05,8.50012241616e-05,5.62378391013e-05,5.87401309115e-05,4.74540342217e-05,6.49769132491e-05,4.56676418909e-05,5.16097560661e-05,4.88889700934e-05,3.6405849343e-05,3.9150333489e-05
crosssection_integrated=2.24630683546,4.32873680344,4.48287359666,4.05772771593,3.43281848049,2.97653172741,2.29322145993,2.16110254239,1.82081972868,1.42893526265,2.20974549896,1.82673245632,1.33461227606,1.02076183432,0.778693509483,0.648207727412,0.491603716758,0.384145547229,0.31931698083,0.256625250455,0.209302572274,0.17833639933,0.150557588681,0.124127422497,0.104544122075,0.0894516895445,0.0746914718005,0.0597350600237,0.0579362117476,0.0472203111878,0.0414136599066,0.0406118817551,0.0255384493282,0.0258792652899,0.0243734316982,0.0205020343618,0.0189452397619,0.0157339356873,0.0151183854699,0.0118152892368,0.0114082523894,0.0112458687076,0.00823241705154,0.00841680046167,0.00799407101907,0.00534253201121,0.0070134610727,0.00599684557789,0.00540342819714,0.00529516324367,0.00428766202926,0.00405172943098,0.00315351159493,0.00386252586528,0.00298553575565,0.00270402496256,0.00329268127841,0.0018802017834,0.0021646149748,0.00190797385792,0.00228637307959,0.00156506410132,0.00182662585057,0.00162432279765,0.00119990935322,0.00151932535004,0.00117292590787,0.00109360442796,0.00122114236115,0.000882474399426,0.000884570799385,0.000998607698326,0.0009498233494855,0.000901039000645,0.000855360996418,0.000626653470097,0.000850012241616,0.000562378391013,0.000587401309115,0.000474540342217,0.000649769132491,0.000456676418909,0.000516097560661,0.000488889700934,0.00036405849343,0.00039150333489
ratios=0.947985,0.9273924,0.9268758,0.9280226,0.9286346,0.9318788,0.9338762,0.9353906,0.939148,0.9402266,0.944545333333,0.950997666667,0.957403666667,0.964578333333,0.972868666667,0.979961333333,0.985325666667,0.989982666667,0.992176666667,0.994033333333,0.995611666667,0.998573333333,1.002566,1.00874333333,1.01583,1.02513333333,1.03382666667,1.04457666667,1.05804666667,1.07270666667,1.08612,1.10276,1.11921,1.13708333333,1.15554666667,1.17529333333,1.19526333333,1.21686333333,1.23891666667,1.26086333333,1.28442,1.30844333333,1.33299,1.35778,1.38375333333,1.46955333333,1.52517666667,1.55479,1.58445,1.61904333333,1.64810666667,1.67583333333,1.70869,1.74007333333,1.77301333333,1.80786,1.84822,1.87969666667,1.91736,1.95328666667,1.98822666667,2.0293,2.06933,2.10653333333,2.15318,2.18973,2.23416333333,2.27462666667,2.31845666667,2.36354666667,2.40722333333,2.45632,2.478906666665,2.50149333333,2.54999666667,2.60162,2.65048666667,2.69823333333,2.74607,2.79883333333,2.85284666667,2.90175666667,2.95687,3.01856,3.07374333333,3.12949
