file=suppliedInput/fromAgnieszka/SMEFTscaling_May16/ratio_ctcb12_new
ct=1.2
cg=0.0
cb=4.67
muR=1.0
muF=1.0
Q=1.0
binBoundaries=1.0,6.0,11.0,16.0,21.0,26.0,31.0,36.0,41.0,46.0,51.0,60.0,70.0,80.0,90.0,100.0,110.0,120.0,130.0,140.0,150.0,160.0,170.0,180.0,190.0,200.0,210.0,220.0,230.0,240.0,250.0,260.0,270.0,280.0,290.0,300.0,310.0,320.0,330.0,340.0,350.0,360.0,370.0,380.0,390.0,400.0,410.0,420.0,430.0,440.0,450.0,460.0,470.0,480.0,490.0,500.0,510.0,520.0,530.0,540.0,550.0,560.0,570.0,580.0,590.0,600.0,610.0,620.0,630.0,640.0,650.0,660.0,670.0,675.0,680.0,690.0,700.0,710.0,720.0,730.0,740.0,750.0,760.0,770.0,780.0,790.0,800.0
binCenters=3.5,8.5,13.5,18.5,23.5,28.5,33.5,38.5,43.5,48.5,55.5,65.0,75.0,85.0,95.0,105.0,115.0,125.0,135.0,145.0,155.0,165.0,175.0,185.0,195.0,205.0,215.0,225.0,235.0,245.0,255.0,265.0,275.0,285.0,295.0,305.0,315.0,325.0,335.0,345.0,355.0,365.0,375.0,385.0,395.0,405.0,415.0,425.0,435.0,445.0,455.0,465.0,475.0,485.0,495.0,505.0,515.0,525.0,535.0,545.0,555.0,565.0,575.0,585.0,595.0,605.0,615.0,625.0,635.0,645.0,655.0,665.0,672.5,677.5,685.0,695.0,705.0,715.0,725.0,735.0,745.0,755.0,765.0,775.0,785.0,795.0
crosssection=0.600765786661,1.14940899811,1.19631088819,1.09513829895,0.939102224573,0.824922101683,0.644142765145,0.615596499577,0.524602711361,0.417388054208,0.363976394352,0.276115802247,0.205409248399,0.159288703682,0.122711610233,0.102881239965,0.0783598473302,0.0613385117943,0.0510187546712,0.040973210363,0.0333403009662,0.0282662823851,0.0237037881075,0.0193629804538,0.0161689035794,0.01370218735,0.0113102618638,0.00892954064257,0.00853433578559,0.00685120917153,0.00592397750163,0.00571241002339,0.00353363153488,0.00351956490656,0.00325639520643,0.00268988751567,0.00244105694011,0.00198892214728,0.00187432591395,0.0014381043583,0.00136158208455,0.00131653556235,0.000944773184668,0.000947386483933,0.000882142769459,0.000554617949242,0.000700487728414,0.00058728297463,0.000518900075946,0.000498567103464,0.000395889317356,0.000366952501872,0.000279818963737,0.000336604942744,0.000255159512952,0.000226564384362,0.000270389357387,0.000151266971246,0.000170880653752,0.000147623724708,0.000173436739265,0.000116370905668,0.000133268871224,0.000116315813426,8.41970965685e-05,0.000104529058614,7.91135111514e-05,7.24320539736e-05,7.92569650837e-05,5.6160380846e-05,5.5201479498e-05,6.11174537444e-05,5.5053890518175005e-05,5.3185381326425e-05,5.03826175388e-05,3.62107825586e-05,4.81895171952e-05,3.12737742995e-05,3.2051272311e-05,2.54282751805e-05,3.41473967374e-05,2.35955629639e-05,2.61374675286e-05,2.42450567813e-05,1.77447340782e-05,1.87336727048e-05
crosssection_integrated=3.0038289333,5.74704499057,5.98155444093,5.47569149476,4.69551112286,4.12461050841,3.22071382573,3.07798249789,2.62301355681,2.08694027104,3.27578754917,2.76115802247,2.05409248399,1.59288703682,1.22711610233,1.02881239965,0.783598473302,0.613385117943,0.510187546712,0.40973210363,0.333403009662,0.282662823851,0.237037881075,0.193629804538,0.161689035794,0.1370218735,0.113102618638,0.0892954064257,0.0853433578559,0.0685120917153,0.0592397750163,0.0571241002339,0.0353363153488,0.0351956490656,0.0325639520643,0.0268988751567,0.0244105694011,0.0198892214728,0.0187432591395,0.014381043583,0.0136158208455,0.0131653556235,0.00944773184668,0.00947386483933,0.00882142769459,0.00554617949242,0.00700487728414,0.0058728297463,0.00518900075946,0.00498567103464,0.00395889317356,0.00366952501872,0.00279818963737,0.00336604942744,0.00255159512952,0.00226564384362,0.00270389357387,0.00151266971246,0.00170880653752,0.00147623724708,0.00173436739265,0.00116370905668,0.00133268871224,0.00116315813426,0.000841970965685,0.00104529058614,0.000791135111514,0.000724320539736,0.000792569650837,0.00056160380846,0.00055201479498,0.000611174537444,0.0005505389051817499,0.00053185381326425,0.000503826175388,0.000362107825586,0.000481895171952,0.000312737742995,0.00032051272311,0.000254282751805,0.000341473967374,0.000235955629639,0.000261374675286,0.000242450567813,0.000177447340782,0.000187336727048
ratios=1.2676740000007787,1.2312519999954474,1.2367420000052136,1.2523179999984388,1.2702140000011573,1.2913140000007992,1.3115819999999787,1.3322439999993425,1.3529060000003508,1.3731879999999135,1.4002199999978273,1.4374599999993407,1.4735333333275327,1.5052133333188231,1.5331099999939164,1.5553600000038494,1.5705733333298948,1.58075666667091,1.5852466666712095,1.5870899999972188,1.5859333333332863,1.5827366666738045,1.5784400000011036,1.5735666666739943,1.5710933333226618,1.570296666674542,1.5654866666766207,1.5614933333308214,1.5585633333298283,1.5563933333300337,1.5536299999989167,1.551126666669424,1.5485966666705413,1.5464266666747077,1.5438599999976699,1.5419966666700722,1.5400733333267342,1.5382333333275018,1.535966666664943,1.534666666670574,1.5329633333306016,1.5317733333335701,1.5297733333308459,1.5283033333288711,1.52696666667153,1.5255699999998102,1.5233099999997017,1.5226366666702056,1.5215733333310424,1.5244133333301473,1.521733333329171,1.5177499999962971,1.5161633333363502,1.5164099999966938,1.5153100000048616,1.514766666676833,1.5177266666714004,1.5122633333217792,1.5136166666635165,1.5112966666681762,1.508203333321995,1.5088933333319954,1.5097633333251752,1.508463333335102,1.5108766666714037,1.506526666668699,1.5069366666685724,1.5065400000011704,1.5047699999999284,1.5041533333302632,1.5022233333303876,1.5033333333295862,1.502597291132261,1.502372172901582,1.5020033333300329,1.5033300000035092,1.5026333333284698,1.500483333327055,1.498379999998549,1.4997566666688709,1.4992599999967804,1.4992800000032465,1.497490000000299,1.496966666674216,1.4981866666687056,1.4974799999951778
