file=suppliedInput/fromAgnieszka/ScaleVarNNLO_Jul17/HRes_mR1mF1Q2.top
ct=1.0
cg=0.0
cb=1.0
muR=1.0
muF=1.0
Q=2.0
binBoundaries=1.0,6.0,11.0,16.0,21.0,26.0,31.0,36.0,41.0,46.0,51.0,60.0,70.0,80.0,90.0,100.0,110.0,120.0,130.0,140.0,150.0,160.0,170.0,180.0,190.0,200.0,210.0,220.0,230.0,240.0,250.0,260.0,270.0,280.0,290.0,300.0,310.0,320.0,330.0,340.0,350.0,360.0,370.0,380.0,390.0,400.0,410.0,420.0,430.0,440.0,450.0,460.0,470.0,480.0,490.0,500.0,510.0,520.0,530.0,540.0,550.0,560.0,570.0,580.0,590.0,600.0,610.0,620.0,630.0,640.0,650.0,660.0,670.0,675.0,680.0,690.0,700.0,710.0,720.0,730.0,740.0,750.0,760.0,770.0,780.0,790.0,800.0
binCenters=3.5,8.5,13.5,18.5,23.5,28.5,33.5,38.5,43.5,48.5,55.5,65.0,75.0,85.0,95.0,105.0,115.0,125.0,135.0,145.0,155.0,165.0,175.0,185.0,195.0,205.0,215.0,225.0,235.0,245.0,255.0,265.0,275.0,285.0,295.0,305.0,315.0,325.0,335.0,345.0,355.0,365.0,375.0,385.0,395.0,405.0,415.0,425.0,435.0,445.0,455.0,465.0,475.0,485.0,495.0,505.0,515.0,525.0,535.0,545.0,555.0,565.0,575.0,585.0,595.0,605.0,615.0,625.0,635.0,645.0,655.0,665.0,672.5,677.5,685.0,695.0,705.0,715.0,725.0,735.0,745.0,755.0,765.0,775.0,785.0,795.0
crosssection=0.667792951542,1.07453303965,1.03937444934,0.917110132159,0.740647577093,0.626748898678,0.518295154185,0.423636123348,0.351928634361,0.307412334802,0.243946696035,0.175677092511,0.119311453744,0.0955083700441,0.0742986784141,0.0532515418502,0.0449365638767,0.0380516299559,0.0324829955947,0.0249421145374,0.0230704845815,0.0176465638767,0.0147725110132,0.0123421145374,0.0104532599119,0.00856977973568,0.00728744493392,0.00613859030837,0.00517986784141,0.00438060792952,0.00379047577093,0.0031917092511,0.00277225110132,0.00238560792952,0.0020014845815,0.00167355506608,0.00160046696035,0.00133439647577,0.00112275770925,0.001065,0.000829114537445,0.000805643171806,0.000706859030837,0.000607660792952,0.000515176211454,0.000454665198238,0.000433124669604,0.000374126872247,0.000357614096916,0.000289637885463,0.000261765638767,0.0003008969163,0.000166323348018,0.000183840088106,0.000183595154185,0.000166674889868,0.000116013215859,0.000135607048458,0.000114973127753,0.00011378722467,8.94475770925e-05,9.71057268722e-05,6.17696035242e-05,8.2877092511e-05,6.43740088106e-05,6.68533039648e-05,6.89189427313e-05,2.81599118943e-05,5.87264317181e-05,4.27883259912e-05,3.38506167401e-05,3.20799118943e-05,4.441248898685e-05,4.026231277535e-05,3.40370484581e-05,1.7936784141e-05,2.55330396476e-05,2.83112334802e-05,1.20913215859e-05,3.23284581498e-05,1.3019339207e-05,2.04271365639e-05,1.67843171806e-05,1.80725110132e-05,1.51589427313e-05,1.34834801762e-05
crosssection_integrated=3.33896475771,5.37266519824,5.1968722467,4.58555066079,3.70323788546,3.13374449339,2.59147577093,2.11818061674,1.75964317181,1.53706167401,2.19552026432,1.75677092511,1.19311453744,0.955083700441,0.742986784141,0.532515418502,0.449365638767,0.380516299559,0.324829955947,0.249421145374,0.230704845815,0.176465638767,0.147725110132,0.123421145374,0.104532599119,0.0856977973568,0.0728744493392,0.0613859030837,0.0517986784141,0.0438060792952,0.0379047577093,0.031917092511,0.0277225110132,0.0238560792952,0.020014845815,0.0167355506608,0.0160046696035,0.0133439647577,0.0112275770925,0.01065,0.00829114537445,0.00805643171806,0.00706859030837,0.00607660792952,0.00515176211454,0.00454665198238,0.00433124669604,0.00374126872247,0.00357614096916,0.00289637885463,0.00261765638767,0.003008969163,0.00166323348018,0.00183840088106,0.00183595154185,0.00166674889868,0.00116013215859,0.00135607048458,0.00114973127753,0.0011378722467,0.000894475770925,0.000971057268722,0.000617696035242,0.00082877092511,0.000643740088106,0.000668533039648,0.000689189427313,0.000281599118943,0.000587264317181,0.000427883259912,0.000338506167401,0.000320799118943,0.0004441248898685,0.0004026231277535,0.000340370484581,0.00017936784141,0.000255330396476,0.000283112334802,0.000120913215859,0.000323284581498,0.00013019339207,0.000204271365639,0.000167843171806,0.000180725110132,0.000151589427313,0.000134834801762
ratios=1.409107810147752,1.151044542287144,1.0745016599956865,1.0487383443578202,1.0017875550430393,0.9810982463638633,1.055335294751368,0.9168126912696323,0.9075941673341544,1.0113728098976607,0.9384648236040771,0.9145756647960556,0.855898191098225,0.9025151734609331,0.9282581057057657,0.8050575416908765,0.9006675143051268,0.9806297213763349,1.0093064956574054,0.9661283607115039,1.0974181232210596,0.9880982333629127,0.9837044685829743,1.0030036480522166,1.0157180342146956,0.9821130166544788,1.0086767234546483,1.0734446738360095,0.9459613837490735,0.9951453541616272,0.994095077229023,0.8666649122463924,1.214925430764722,1.0481885734126535,0.9489057040399957,0.9593770439658662,1.0097414959908553,1.0320228681204342,0.9200739334147058,1.1365100109537447,0.9334745216294548,0.9373561657171795,1.1445435934747843,0.9802652150434144,0.8917569010227474,1.2506331384042644,0.9418910763050473,0.969991159762155,1.0486336362519144,0.885593636984171,1.0061840028730684,1.2445378962765914,0.9012018284066293,0.8282021818563473,1.0903123691935401,1.1143568220355473,0.6511955688533149,1.3557061758678264,1.018402250719021,1.164895776023423,0.7778348145853826,1.2590963614551578,0.6997694334644909,1.0748070407967392,1.1551608287692723,0.9635242727077439,1.3127527816465723,0.58570800271292,1.1149780030451266,1.146007242076412,0.9211924531197542,0.7890839347245604,1.212159304564519,1.1373233926648925,1.0147102857728916,0.7446650913747889,0.7961647824830823,1.3583436900243342,0.5652628782429147,1.9067286431786512,0.5716211589876855,1.2979557789931313,0.9616213624093207,1.1158541229208228,1.2798684827139384,1.0778047749824031
