file=suppliedInput/fromQianying/13tev-pth_quarkInduced_Apr18/higgs_plus_jet_13tev_m1_m5.pth
kappab=-1.0
kappac=-5.0
muR=1.0
muF=1.0
Q=1.0
binBoundaries=0.0,5.0,10.0,15.0,20.0,25.0,30.0,35.0,40.0,45.0,50.0,55.0,60.0,65.0,70.0,75.0,80.0,85.0,90.0,95.0,100.0,105.0,110.0,115.0,120.0
binCenters=3.0,7.5,12.5,17.5,22.5,27.5,32.5,37.5,42.5,47.5,52.5,57.5,62.5,67.5,72.5,77.5,82.5,87.5,92.5,97.5,102.5,107.5,112.5,117.5
crosssection=0.0,0.0411712,0.1021233,0.1257178,0.07841924,0.05025951,0.03493778,0.02446225,0.01897553,0.01450028,0.01132023,0.008647477,0.007879129,0.004688513,0.004825446,0.003707013,0.002688921,0.002504817,0.00215591,0.001950716,0.0016831,0.001189063,0.001024034,0.0008342284
crosssection_integrated=0.0,0.205856,0.5106165,0.628589,0.3920962,0.25129755,0.1746889,0.12231125,0.09487765,0.0725014,0.05660115,0.043237385,0.039395645,0.023442565,0.02412723,0.018535065,0.013444605,0.012524085,0.01077955,0.00975358,0.0084155,0.005945315,0.00512017,0.004171142
ratios=0.0,3.71672468332,6.16156758922,3.27684081161,3.13697413071,2.94918676526,2.84783492919,2.75369268757,2.93354587226,2.85631327597,2.94947280548,2.93183114235,3.36376525495,2.45459162064,3.07746458213,3.22674998564,2.51787189096,2.8268057188,3.19770835178,3.30506926746,3.55758227292,2.70259772021,2.42077428164,2.60258165314