file=suppliedInput/fromQianying/13tev-pth_quarkInduced_Apr18/higgs_plus_jet_13tev_m2_0.pth
kappab=-2.0
kappac=0.0
muR=1.0
muF=1.0
Q=1.0
binBoundaries=0.0,5.0,10.0,15.0,20.0,25.0,30.0,35.0,40.0,45.0,50.0,55.0,60.0,65.0,70.0,75.0,80.0,85.0,90.0,95.0,100.0,105.0,110.0,115.0,120.0
binCenters=3.0,7.5,12.5,17.5,22.5,27.5,32.5,37.5,42.5,47.5,52.5,57.5,62.5,67.5,72.5,77.5,82.5,87.5,92.5,97.5,102.5,107.5,112.5,117.5
crosssection=0.0,0.03841948,0.06879117,0.125024,0.07753062,0.05286225,0.03771651,0.02764201,0.02112669,0.01549547,0.01309432,0.0103033,0.007973663,0.006717595,0.004820408,0.00417562,0.003864378,0.002718755,0.002442334,0.002296019,0.001775713,0.00158771,0.001212424,0.001241351
crosssection_integrated=0.0,0.1920974,0.34395585,0.62512,0.3876531,0.26431125,0.18858255,0.13821005,0.10563345,0.07747735,0.0654716,0.0515165,0.039868315,0.033587975,0.02410204,0.0208781,0.01932189,0.013593775,0.01221167,0.011480095,0.008878565,0.00793855,0.00606212,0.006206755
ratios=0.0,3.46831352101,4.15048714149,3.25875687954,3.10142701304,3.10191341066,3.07433370367,3.11163530774,3.2661071519,3.05234910487,3.41170989867,3.49321956092,3.40412380025,3.51688315632,3.07425155964,3.63464648628,3.61855507925,3.06824497839,3.62254075061,3.89011103329,3.75333913053,3.60867458356,2.8661204976,3.87270121433