file=suppliedInput/fromQianying/13tev-pth_quarkInduced_Apr18/higgs_plus_jet_13tev_0_m5.pth
kappab=0.0
kappac=-5.0
muR=1.0
muF=1.0
Q=1.0
binBoundaries=0.0,5.0,10.0,15.0,20.0,25.0,30.0,35.0,40.0,45.0,50.0,55.0,60.0,65.0,70.0,75.0,80.0,85.0,90.0,95.0,100.0,105.0,110.0,115.0,120.0
binCenters=3.0,7.5,12.5,17.5,22.5,27.5,32.5,37.5,42.5,47.5,52.5,57.5,62.5,67.5,72.5,77.5,82.5,87.5,92.5,97.5,102.5,107.5,112.5,117.5
crosssection=0.0,0.03242302,0.08187087,0.09254621,0.05363099,0.03451532,0.02385447,0.01718374,0.01302055,0.009336019,0.007229645,0.00602335,0.004701744,0.003941596,0.00299354,0.002590402,0.002109257,0.001810431,0.00142871,0.001291888,0.00101085,0.0008648382,0.0008367389,0.0006107297
crosssection_integrated=0.0,0.1621151,0.40935435,0.46273105,0.26815495,0.1725766,0.11927235,0.0859187,0.06510275,0.046680095,0.036148225,0.03011675,0.02350872,0.01970798,0.0149677,0.01295201,0.010546285,0.009052155,0.00714355,0.00645944,0.00505425,0.004324191,0.0041836945,0.0030536485
ratios=0.0,2.92698388052,4.93964549807,2.41222164155,2.14537947874,2.02533062783,1.94441641351,1.93435759928,2.01292826641,1.83904000574,1.88367562503,2.04214999488,2.00727302534,2.06355586805,1.90915271359,2.25480180844,1.97508179344,2.04315792503,2.11910418305,2.18882673121,2.13664193487,1.96567359986,1.97801636427,1.9053222262