file=suppliedInput/fromQianying/13tev-pth_quarkInduced_Apr18/higgs_plus_jet_13tev_1_1_mur100_muf025.pth
kappab=1.0
kappac=1.0
muR=2.0
muF=0.5
Q=1.0
binBoundaries=0.0,5.0,10.0,15.0,20.0,25.0,30.0,35.0,40.0,45.0,50.0,55.0,60.0,65.0,70.0,75.0,80.0,85.0,90.0,95.0,100.0,105.0,110.0,115.0,120.0
binCenters=3.0,7.5,12.5,17.5,22.5,27.5,32.5,37.5,42.5,47.5,52.5,57.5,62.5,67.5,72.5,77.5,82.5,87.5,92.5,97.5,102.5,107.5,112.5,117.5
crosssection=0.0,0.008826547,0.0260955,0.03152182,0.02057148,0.01398594,0.01012123,0.007379814,0.005399474,0.004148221,0.003302674,0.002580294,0.002051793,0.001577017,0.001311474,0.001098446,0.0008386958,0.0007561053,0.0006145427,0.0005435053,0.0004784463,0.0004084439,0.0003544559,0.0002348621
crosssection_integrated=0.0,0.044132735,0.1304775,0.1576091,0.1028574,0.0699297,0.05060615,0.03689907,0.02699737,0.020741105,0.01651337,0.01290147,0.010258965,0.007885085,0.00655737,0.00549223,0.004193479,0.0037805265,0.0030727135,0.0027175265,0.0023922315,0.0020422195,0.0017722795,0.0011743105
ratios=0.0,0.796815373449,1.57446133277,0.821617831622,0.822912853918,0.820683471601,0.824997819564,0.830738785166,0.834738458694,0.817130339134,0.860507882645,0.874820055101,0.875953421216,0.82562055684,0.836402435213,0.956136548408,0.785344225392,0.853300974106,0.911507588126,0.920852991277,1.011295868,0.928344043145,0.837919177191,0.732710361429