file=suppliedInput/fromPier/histograms_ggH_May17/H125-LHC13-R04-MSbar-xmur050-xmuf050_0_10-xQ100-NNLO+NNLLmult.0_10.res
kappab=0.0
kappac=10.0
muR=1.0
muF=1.0
Q=2.0
binBoundaries=0.0,5.0,10.0,15.0,20.0,25.0,30.0,35.0,40.0,45.0,50.0,55.0,60.0,65.0,70.0,75.0,80.0,85.0,90.0,95.0,100.0,105.0,110.0,115.0,120.0,125.0,130.0,135.0,140.0,145.0,150.0,155.0,160.0,165.0,170.0,175.0,180.0,185.0,190.0,195.0,200.0,205.0,210.0,215.0,220.0,225.0,230.0,235.0,240.0,245.0
binCenters=2.75,7.5,12.5,17.5,22.5,27.5,32.5,37.5,42.5,47.5,52.5,57.5,62.5,67.5,72.5,77.5,82.5,87.5,92.5,97.5,102.5,107.5,112.5,117.5,122.5,127.5,132.5,137.5,142.5,147.5,152.5,157.5,162.5,167.5,172.5,177.5,182.5,187.5,192.5,197.5,202.5,207.5,212.5,217.5,222.5,227.5,232.5,237.5,242.5
crosssection=0.489750756,0.923677993,1.03901302,0.946922203,0.809141912,0.677713561,0.566242464,0.471585605,0.392363034,0.327127223,0.273321755,0.22894149,0.192509669,0.16293002,0.138267174,0.118138636,0.101665258,0.0881903317,0.0771878361,0.0682729655,0.0610425428,0.0552197649,0.0505532043,0.0468374061,0.0439075734,0.0405815326,0.0367362777,0.0333580146,0.0305042919,0.0277199354,0.0252366665,0.0230117467,0.0210108355,0.0192058629,0.0175735484,0.0160943123,0.0147514596,0.0135306022,0.0124192503,0.0114064584,0.0104825786,0.00963905246,0.00886826519,0.00816341037,0.00751839438,0.00692774711,0.00638654435,0.00589033756,0.00543511089
crosssection_integrated=2.44875378,4.618389965,5.1950651,4.734611015,4.04570956,3.388567805,2.83121232,2.357928025,1.96181517,1.635636115,1.366608775,1.14470745,0.962548345,0.8146501,0.69133587,0.59069318,0.50832629,0.4409516585,0.3859391805,0.3413648275,0.305212714,0.2760988245,0.2527660215,0.2341870305,0.219537867,0.202907663,0.1836813885,0.166790073,0.1525214595,0.138599677,0.1261833325,0.1150587335,0.1050541775,0.0960293145,0.087867742,0.0804715615,0.073757298,0.067653011,0.0620962515,0.057032292,0.052412893,0.0481952623,0.04434132595,0.04081705185,0.0375919719,0.03463873555,0.03193272175,0.0294516878,0.02717555445
ratios=0.929139275503,0.954638749084,0.982050218413,0.995267403724,1.00577088051,1.02050464509,1.04175828443,1.06197177747,1.07650814494,1.08361834662,1.07798912115,1.0570290225,1.02260660348,0.992279061311,0.963353720011,0.937328689977,0.914869842649,0.896914026194,0.884369665036,0.878664118774,0.880084570874,0.88962882826,0.907932566858,0.935618828203,0.973378131006,0.996189661987,0.996194992892,0.996212664391,0.996255260455,0.996266414624,0.996281507878,0.996298872603,0.996317829706,0.996338003715,0.996359158822,0.996381127788,0.996403770594,0.996426963103,0.996450568423,0.99647447765,0.996498577891,0.996522751052,0.996546892972,0.996570900257,0.996594674913,0.996618131711,0.996641188805,0.996663768707,0.996685794856