file=suppliedInput/fromPier/histograms_ggH_May17/H125-LHC13-R04-MSbar-xmur100-xmuf100_-2_0-xQ050-NNLO+NNLLmult.-2_0.res
kappab=-2.0
kappac=0.0
muR=2.0
muF=2.0
Q=1.0
binBoundaries=0.0,5.0,10.0,15.0,20.0,25.0,30.0,35.0,40.0,45.0,50.0,55.0,60.0,65.0,70.0,75.0,80.0,85.0,90.0,95.0,100.0,105.0,110.0,115.0,120.0,125.0,130.0,135.0,140.0,145.0,150.0,155.0,160.0,165.0,170.0,175.0,180.0,185.0,190.0,195.0,200.0,205.0,210.0,215.0,220.0,225.0,230.0,235.0,240.0,245.0
binCenters=2.75,7.5,12.5,17.5,22.5,27.5,32.5,37.5,42.5,47.5,52.5,57.5,62.5,67.5,72.5,77.5,82.5,87.5,92.5,97.5,102.5,107.5,112.5,117.5,122.5,127.5,132.5,137.5,142.5,147.5,152.5,157.5,162.5,167.5,172.5,177.5,182.5,187.5,192.5,197.5,202.5,207.5,212.5,217.5,222.5,227.5,232.5,237.5,242.5
crosssection=0.831196497,1.40867434,1.28516194,1.02070973,0.793134924,0.617957631,0.484400126,0.381886243,0.304761828,0.247647453,0.205581388,0.175216095,0.153165129,0.132968807,0.115701561,0.101204303,0.0889302876,0.0784649185,0.0694870289,0.0617438803,0.0550355639,0.04920003,0.0441058662,0.0396476738,0.0357419675,0.0323392012,0.0294192636,0.026655773,0.0242021587,0.0220130981,0.0200524541,0.0182923972,0.0167059084,0.0152740676,0.0139792574,0.0128064751,0.0117427208,0.0107766386,0.00989826445,0.00909879747,0.00837043579,0.00770623745,0.00710001507,0.00654623503,0.00603995059,0.00557671871,0.00515254863,0.00476384974,0.0044073889
crosssection_integrated=4.155982485,7.0433717,6.4258097,5.10354865,3.96567462,3.089788155,2.42200063,1.909431215,1.52380914,1.238237265,1.02790694,0.876080475,0.765825645,0.664844035,0.578507805,0.506021515,0.444651438,0.3923245925,0.3474351445,0.3087194015,0.2751778195,0.24600015,0.220529331,0.198238369,0.1787098375,0.161696006,0.147096318,0.133278865,0.1210107935,0.1100654905,0.1002622705,0.091461986,0.083529542,0.076370338,0.069896287,0.0640323755,0.058713604,0.053883193,0.04949132225,0.04549398735,0.04185217895,0.03853118725,0.03550007535,0.03273117515,0.03019975295,0.02788359355,0.02576274315,0.0238192487,0.0220369445
ratios=1.57691907886,1.45589168519,1.21470428145,1.07282215975,0.985874046372,0.93052385137,0.891186861325,0.85997623331,0.836160804358,0.820339319682,0.810819101374,0.80897742748,0.813609379478,0.809808793945,0.806131534882,0.802969290682,0.800269824952,0.798004550047,0.796138660929,0.79463564789,0.79347858749,0.792646711164,0.792138754941,0.791997533393,0.792356462214,0.793858088848,0.797776065725,0.796055129784,0.790430671143,0.791160224668,0.791621556175,0.791973549212,0.792181462768,0.792369189577,0.792575342611,0.792834752134,0.793175156861,0.79361828202,0.794180888487,0.794875949941,0.795713314381,0.796700814297,0.797844652418,0.799149747649,0.800620756307,0.802260661885,0.804072110135,0.806058462195,0.808223051551