file=suppliedInput/fromPier/histograms_ggH_May17/H125-LHC13-R04-MSbar-xmur050-xmuf025_-2_-10-xQ050-NNLO+NNLLmult.-2_-10.res
kappab=-2.0
kappac=-10.0
muR=1.0
muF=0.5
Q=1.0
binBoundaries=0.0,5.0,10.0,15.0,20.0,25.0,30.0,35.0,40.0,45.0,50.0,55.0,60.0,65.0,70.0,75.0,80.0,85.0,90.0,95.0,100.0,105.0,110.0,115.0,120.0,125.0,130.0,135.0,140.0,145.0,150.0,155.0,160.0,165.0,170.0,175.0,180.0,185.0,190.0,195.0,200.0,205.0,210.0,215.0,220.0,225.0,230.0,235.0,240.0,245.0
binCenters=2.75,7.5,12.5,17.5,22.5,27.5,32.5,37.5,42.5,47.5,52.5,57.5,62.5,67.5,72.5,77.5,82.5,87.5,92.5,97.5,102.5,107.5,112.5,117.5,122.5,127.5,132.5,137.5,142.5,147.5,152.5,157.5,162.5,167.5,172.5,177.5,182.5,187.5,192.5,197.5,202.5,207.5,212.5,217.5,222.5,227.5,232.5,237.5,242.5
crosssection=0.792101711,1.48756336,1.39993449,1.12699687,0.895233729,0.714882262,0.574240552,0.463072364,0.376068175,0.308562492,0.257105913,0.218333012,0.189086114,0.16418766,0.143199195,0.125608497,0.110546799,0.0976886119,0.0866395047,0.0770908834,0.0687988287,0.0615666394,0.0552348417,0.0496718918,0.0447692661,0.0404371489,0.0366001327,0.0331953083,0.0301710149,0.0274880547,0.0251399691,0.0230801863,0.0210879212,0.0192982229,0.0176840374,0.0162233255,0.0148978684,0.0136924666,0.0125941695,0.0115918742,0.010675939,0.00983793499,0.00907044912,0.00836689831,0.00772142383,0.00712879014,0.00658429749,0.00608371541,0.00562322805
crosssection_integrated=3.960508555,7.4378168,6.99967245,5.63498435,4.476168645,3.57441131,2.87120276,2.31536182,1.880340875,1.54281246,1.285529565,1.09166506,0.94543057,0.8209383,0.715995975,0.628042485,0.552733995,0.4884430595,0.4331975235,0.385454417,0.3439941435,0.307833197,0.2761742085,0.248359459,0.2238463305,0.2021857445,0.1830006635,0.1659765415,0.1508550745,0.1374402735,0.1256998455,0.1154009315,0.105439606,0.0964911145,0.088420187,0.0811166275,0.074489342,0.068462333,0.0629708475,0.057959371,0.053379695,0.04918967495,0.0453522456,0.04183449155,0.03860711915,0.0356439507,0.03292148745,0.03041857705,0.02811614025
ratios=1.5027497168,1.53742498569,1.32318454649,1.18453579952,1.11278380532,1.07647347058,1.0564729605,1.04280066287,1.03180070078,1.02212214057,1.01403335859,1.00804939399,1.00442076394,0.999938360921,0.997716762518,0.996595626371,0.994793448578,0.993513512462,0.99266093755,0.992149566554,0.99191129425,0.991881391898,0.992014498371,0.992240200094,0.992480822521,0.992645351556,0.992503084626,0.991353559958,0.985370596568,0.987932522417,0.992464132415,0.999261980846,0.999973174937,1.00112934157,1.00262350138,1.00436819274,1.00629311608,1.00834705728,1.01048509805,1.01267250389,1.01487987232,1.0170840009,1.01926675564,1.02141225336,1.02350707914,1.0255399624,1.02750121478,1.02938391332,1.03118255213