file=suppliedInput/fromPier/histograms_ggH_May17/H125-LHC13-R04-MSbar-xmur050-xmuf050_1_10-xQ025-NNLO+NNLLmult.1_10.res
kappab=1.0
kappac=10.0
muR=1.0
muF=1.0
Q=0.5
binBoundaries=0.0,5.0,10.0,15.0,20.0,25.0,30.0,35.0,40.0,45.0,50.0,55.0,60.0,65.0,70.0,75.0,80.0,85.0,90.0,95.0,100.0,105.0,110.0,115.0,120.0,125.0,130.0,135.0,140.0,145.0,150.0,155.0,160.0,165.0,170.0,175.0,180.0,185.0,190.0,195.0,200.0,205.0,210.0,215.0,220.0,225.0,230.0,235.0,240.0,245.0
binCenters=2.75,7.5,12.5,17.5,22.5,27.5,32.5,37.5,42.5,47.5,52.5,57.5,62.5,67.5,72.5,77.5,82.5,87.5,92.5,97.5,102.5,107.5,112.5,117.5,122.5,127.5,132.5,137.5,142.5,147.5,152.5,157.5,162.5,167.5,172.5,177.5,182.5,187.5,192.5,197.5,202.5,207.5,212.5,217.5,222.5,227.5,232.5,237.5,242.5
crosssection=0.389670717,0.802861159,1.05750743,0.992493854,0.81723463,0.645193292,0.513536538,0.421253881,0.351156534,0.296361908,0.252635506,0.217155211,0.187985201,0.16386794,0.143355134,0.125975793,0.111139339,0.0983915475,0.0873787187,0.0778203503,0.0694910741,0.0622070559,0.0558167051,0.0501952084,0.0452388347,0.0408613339,0.036994565,0.0335957778,0.0307227533,0.0279208197,0.0254212604,0.0231813318,0.0211666182,0.0193489603,0.0177049896,0.0162150437,0.0148623519,0.0136324567,0.0125128052,0.0114923935,0.01056152,0.00971157696,0.00893490351,0.00822465076,0.00757468567,0.0069795016,0.00643414051,0.00593412259,0.00547540311
crosssection_integrated=1.948353585,4.014305795,5.28753715,4.96246927,4.08617315,3.22596646,2.56768269,2.106269405,1.75578267,1.48180954,1.26317753,1.085776055,0.939926005,0.8193397,0.71677567,0.629878965,0.555696695,0.4919577375,0.4368935935,0.3891017515,0.3474553705,0.3110352795,0.2790835255,0.250976042,0.2261941735,0.2043066695,0.184972825,0.167978889,0.1536137665,0.1396040985,0.127106302,0.115906659,0.105833091,0.0967448015,0.088524948,0.0810752185,0.0743117595,0.0681622835,0.062564026,0.0574619675,0.0528076,0.0485578848,0.04467451755,0.0411232538,0.03787342835,0.034897508,0.03217070255,0.02967061295,0.02737701555
ratios=0.739270666237,0.829772256483,0.999530691738,1.04316571958,1.01583020383,0.97153545297,0.944791280826,0.948628897977,0.963451793986,0.981707354723,0.996401940579,1.00261145506,0.998572741297,0.99799119697,0.99880324177,0.999509804917,1.00012562387,1.0006625138,1.0011303865,1.00153770996,1.00189178438,1.00219894724,1.00246473071,1.00269391444,1.00289059402,1.00305818431,1.0031990916,1.00331328815,1.00339010298,1.00348628287,1.00356882092,1.00364109856,1.00370492679,1.00376143366,1.00381141835,1.00385547564,1.00389411452,1.00392778004,1.00395688571,1.00398181524,1.00400293305,1.00402061607,1.00403519078,1.00404699025,1.00405632125,1.00406347611,1.00406872565,1.00407233444,1.00407454628