file=suppliedInput/fromPier/histograms_ggH_May17/H125-LHC13-R04-MSbar-xmur025-xmuf050_2_1-xQ050-NNLO+NNLLmult.2_1.res
kappab=2.0
kappac=1.0
muR=0.5
muF=1.0
Q=1.0
binBoundaries=0.0,5.0,10.0,15.0,20.0,25.0,30.0,35.0,40.0,45.0,50.0,55.0,60.0,65.0,70.0,75.0,80.0,85.0,90.0,95.0,100.0,105.0,110.0,115.0,120.0,125.0,130.0,135.0,140.0,145.0,150.0,155.0,160.0,165.0,170.0,175.0,180.0,185.0,190.0,195.0,200.0,205.0,210.0,215.0,220.0,225.0,230.0,235.0,240.0,245.0
binCenters=2.75,7.5,12.5,17.5,22.5,27.5,32.5,37.5,42.5,47.5,52.5,57.5,62.5,67.5,72.5,77.5,82.5,87.5,92.5,97.5,102.5,107.5,112.5,117.5,122.5,127.5,132.5,137.5,142.5,147.5,152.5,157.5,162.5,167.5,172.5,177.5,182.5,187.5,192.5,197.5,202.5,207.5,212.5,217.5,222.5,227.5,232.5,237.5,242.5
crosssection=0.450420766,0.714708657,0.901840157,0.901683279,0.827028306,0.726030258,0.623460287,0.528726671,0.446087814,0.376576652,0.319223732,0.272345802,0.234297345,0.203847287,0.178392493,0.156850241,0.138209982,0.122185232,0.10833482,0.0963093881,0.0858282566,0.0766619679,0.0686204644,0.0615468922,0.0553097863,0.0497978706,0.0449188804,0.0405947803,0.0367603931,0.0333677369,0.030415573,0.0278426706,0.025327231,0.0230745012,0.0210487881,0.0192210999,0.0175675204,0.0160680514,0.0147057915,0.0134662597,0.0123369329,0.0113068708,0.0103664595,0.00950718683,0.00872148967,0.00800261527,0.00734450784,0.00674170684,0.00618929011
crosssection_integrated=2.25210383,3.573543285,4.509200785,4.508416395,4.13514153,3.63015129,3.117301435,2.643633355,2.23043907,1.88288326,1.59611866,1.36172901,1.171486725,1.019236435,0.891962465,0.784251205,0.69104991,0.61092616,0.5416741,0.4815469405,0.429141283,0.3833098395,0.343102322,0.307734461,0.2765489315,0.248989353,0.224594402,0.2029739015,0.1838019655,0.1668386845,0.152077865,0.139213353,0.126636155,0.115372506,0.1052439405,0.0961054995,0.087837602,0.080340257,0.0735289575,0.0673312985,0.0616846645,0.056534354,0.0518322975,0.04753593415,0.04360744835,0.04001307635,0.0367225392,0.0337085342,0.03094645055
ratios=0.854523692032,0.738664971395,0.852397714088,0.947718802272,1.02800383368,1.09326018159,1.1470261598,1.19064873195,1.22391031651,1.2474210042,1.25902788203,1.25742789946,1.24458170553,1.24147406718,1.24292025925,1.24447205332,1.24373012937,1.24264923674,1.24123221114,1.23948920345,1.23743410602,1.23507763567,1.23241949238,1.2294538907,1.226151487,1.22243100993,1.21808649494,1.2123333696,1.20057646715,1.19925083251,1.2007319957,1.20545483534,1.20099801945,1.19703043711,1.19339317981,1.18995710029,1.18661773419,1.18329098904,1.1799097325,1.1764198518,1.17277785929,1.1689483009,1.16490235514,1.16061612839,1.15606999622,1.15124749108,1.14613453281,1.140718147,1.1349865086