file=suppliedInput/fromPier/histograms_ggH_May17/H125-LHC13-R04-MSbar-xmur050-xmuf050_-2_-10-xQ025-NNLO+NNLLmult.-2_-10.res
kappab=-2.0
kappac=-10.0
muR=1.0
muF=1.0
Q=0.5
binBoundaries=0.0,5.0,10.0,15.0,20.0,25.0,30.0,35.0,40.0,45.0,50.0,55.0,60.0,65.0,70.0,75.0,80.0,85.0,90.0,95.0,100.0,105.0,110.0,115.0,120.0,125.0,130.0,135.0,140.0,145.0,150.0,155.0,160.0,165.0,170.0,175.0,180.0,185.0,190.0,195.0,200.0,205.0,210.0,215.0,220.0,225.0,230.0,235.0,240.0,245.0
binCenters=2.75,7.5,12.5,17.5,22.5,27.5,32.5,37.5,42.5,47.5,52.5,57.5,62.5,67.5,72.5,77.5,82.5,87.5,92.5,97.5,102.5,107.5,112.5,117.5,122.5,127.5,132.5,137.5,142.5,147.5,152.5,157.5,162.5,167.5,172.5,177.5,182.5,187.5,192.5,197.5,202.5,207.5,212.5,217.5,222.5,227.5,232.5,237.5,242.5
crosssection=0.87911074,1.47447152,1.42075191,1.18897628,0.93463943,0.717277005,0.558426909,0.450649436,0.370571594,0.309134402,0.260906764,0.222341393,0.191044634,0.165460313,0.143936875,0.125868717,0.110571416,0.0975251032,0.0863293625,0.0766701074,0.0682976796,0.061010621,0.0546445425,0.0490653492,0.0441626041,0.0398452434,0.0360417114,0.0327069173,0.0298967469,0.0271535738,0.0247099794,0.0225227432,0.0205573781,0.0187857926,0.0171847435,0.0157347162,0.0144190958,0.0132235825,0.0121357789,0.0111448344,0.0102411963,0.00941640161,0.00866292902,0.00797406383,0.00734380127,0.00676675685,0.00623808825,0.00575342489,0.00530882476
crosssection_integrated=4.3955537,7.3723576,7.10375955,5.9448814,4.67319715,3.586385025,2.792134545,2.25324718,1.85285797,1.54567201,1.30453382,1.111706965,0.95522317,0.827301565,0.719684375,0.629343585,0.55285708,0.487625516,0.4316468125,0.383350537,0.341488398,0.305053105,0.2732227125,0.245326746,0.2208130205,0.199226217,0.180208557,0.1635345865,0.1494837345,0.135767869,0.123549897,0.112613716,0.1027868905,0.093928963,0.0859237175,0.078673581,0.072095479,0.0661179125,0.0606788945,0.055724172,0.0512059815,0.04708200805,0.0433146451,0.03987031915,0.03671900635,0.03383378425,0.03119044125,0.02876712445,0.0265441238
ratios=1.66782042915,1.5238943204,1.34286067322,1.24967957403,1.16176545613,1.08007948718,1.02737942787,1.01482525652,1.01671998801,1.02401660891,1.02902402784,1.02655619697,1.01482437377,1.00768909295,1.0028564262,0.99866024875,0.995014973132,0.991850594957,0.989107523341,0.986734234577,0.984685946642,0.982923548659,0.981412759563,0.980123972405,0.979031855111,0.978115339943,0.977360110492,0.97676812059,0.976413137773,0.975911134841,0.97548919689,0.975127353461,0.974815224889,0.974546116191,0.974315271368,0.974118929753,0.973953887497,0.973817274136,0.973706422775,0.973618861157,0.973552208695,0.973504239794,0.973472806007,0.973455897669,0.973451626689,0.973458248766,0.973474127577,0.973497711367,0.973527556799