file=suppliedInput/fromPier/histograms_ggH_May17/H125-LHC13-R04-MSbar-xmur025-xmuf050_0_-5-xQ050-NNLO+NNLLmult.0_-5.res
kappab=0.0
kappac=-5.0
muR=0.5
muF=1.0
Q=1.0
binBoundaries=0.0,5.0,10.0,15.0,20.0,25.0,30.0,35.0,40.0,45.0,50.0,55.0,60.0,65.0,70.0,75.0,80.0,85.0,90.0,95.0,100.0,105.0,110.0,115.0,120.0,125.0,130.0,135.0,140.0,145.0,150.0,155.0,160.0,165.0,170.0,175.0,180.0,185.0,190.0,195.0,200.0,205.0,210.0,215.0,220.0,225.0,230.0,235.0,240.0,245.0
binCenters=2.75,7.5,12.5,17.5,22.5,27.5,32.5,37.5,42.5,47.5,52.5,57.5,62.5,67.5,72.5,77.5,82.5,87.5,92.5,97.5,102.5,107.5,112.5,117.5,122.5,127.5,132.5,137.5,142.5,147.5,152.5,157.5,162.5,167.5,172.5,177.5,182.5,187.5,192.5,197.5,202.5,207.5,212.5,217.5,222.5,227.5,232.5,237.5,242.5
crosssection=0.600854856,1.04195048,1.1292745,1.02983286,0.90001623,0.769923798,0.65138009,0.546948247,0.457963916,0.384136644,0.323788155,0.274821444,0.235331888,0.203925286,0.177844039,0.155901327,0.137016696,0.120856495,0.106946141,0.094912641,0.0844584438,0.0753420082,0.0673646335,0.0603633129,0.054202239,0.0487671134,0.0439636095,0.0397123293,0.0359472404,0.0326198815,0.0297288859,0.0272120371,0.0247476716,0.0225418913,0.0205592319,0.0187710087,0.0171536131,0.0156873343,0.0143555315,0.0131439587,0.0120403046,0.0110338199,0.010115064,0.00927568262,0.00850825663,0.0078061654,0.00716347436,0.00657483445,0.00603542608
crosssection_integrated=3.00427428,5.2097524,5.6463725,5.1491643,4.50008115,3.84961899,3.25690045,2.734741235,2.28981958,1.92068322,1.618940775,1.37410722,1.17665944,1.01962643,0.889220195,0.779506635,0.68508348,0.604282475,0.534730705,0.474563205,0.422292219,0.376710041,0.3368231675,0.3018165645,0.271011195,0.243835567,0.2198180475,0.1985616465,0.179736202,0.1630994075,0.1486444295,0.1360601855,0.123738358,0.1127094565,0.1027961595,0.0938550435,0.0857680655,0.0784366715,0.0717776575,0.0657197935,0.060201523,0.0551690995,0.05057532,0.0463784131,0.04254128315,0.039030827,0.0358173718,0.03287417225,0.0301771304
ratios=1.13992237632,1.07687561073,1.06736320722,1.08241107199,1.11872849829,1.15935530502,1.19839229343,1.23168221399,1.25649422332,1.27246369541,1.27703010193,1.26885800522,1.25007717238,1.24194909796,1.2390989965,1.23694323509,1.23299193427,1.22913570493,1.22532160081,1.22151325131,1.21768474672,1.21381216662,1.20986484351,1.2058108419,1.20159849449,1.19712812951,1.19218196277,1.18597961706,1.17401929751,1.1723725874,1.17362327834,1.17815141273,1.17351575375,1.1694003594,1.16563704356,1.1620924504,1.15865990455,1.15525404152,1.15180684644,1.14826345922,1.14457967539,1.14071923636,1.13665247773,1.13235461163,1.12780506338,1.12298642737,1.1178836646,1.11248281016,1.1067710598