file=suppliedInput/fromPier/histograms_ggH_May17/H125-LHC13-R04-MSbar-xmur050-xmuf100_0_-5-xQ050-NNLO+NNLLmult.0_-5.res
kappab=0.0
kappac=-5.0
muR=1.0
muF=2.0
Q=1.0
binBoundaries=0.0,5.0,10.0,15.0,20.0,25.0,30.0,35.0,40.0,45.0,50.0,55.0,60.0,65.0,70.0,75.0,80.0,85.0,90.0,95.0,100.0,105.0,110.0,115.0,120.0,125.0,130.0,135.0,140.0,145.0,150.0,155.0,160.0,165.0,170.0,175.0,180.0,185.0,190.0,195.0,200.0,205.0,210.0,215.0,220.0,225.0,230.0,235.0,240.0,245.0
binCenters=2.75,7.5,12.5,17.5,22.5,27.5,32.5,37.5,42.5,47.5,52.5,57.5,62.5,67.5,72.5,77.5,82.5,87.5,92.5,97.5,102.5,107.5,112.5,117.5,122.5,127.5,132.5,137.5,142.5,147.5,152.5,157.5,162.5,167.5,172.5,177.5,182.5,187.5,192.5,197.5,202.5,207.5,212.5,217.5,222.5,227.5,232.5,237.5,242.5
crosssection=0.722006237,1.17338219,1.17514207,1.01432869,0.842115875,0.689545405,0.562172736,0.458076661,0.375018965,0.309657443,0.259069847,0.220270538,0.190512699,0.16530534,0.144059646,0.126142875,0.110916429,0.0978926281,0.0866906244,0.0770085591,0.0686064268,0.0612881548,0.0548938782,0.0492951375,0.0443901546,0.0401210974,0.0364691627,0.0329937548,0.0299100682,0.0271604236,0.0246989359,0.0224907692,0.0205010884,0.0187064396,0.0170845737,0.0156165938,0.0142861317,0.0130788842,0.0119823003,0.0109852859,0.0100779982,0.00925167103,0.00849848597,0.00781144442,0.00718428779,0.00661139004,0.00608769531,0.00560865178,0.00517016086
crosssection_integrated=3.610031185,5.86691095,5.87571035,5.07164345,4.210579375,3.447727025,2.81086368,2.290383305,1.875094825,1.548287215,1.295349235,1.10135269,0.952563495,0.8265267,0.72029823,0.630714375,0.554582145,0.4894631405,0.433453122,0.3850427955,0.343032134,0.306440774,0.274469391,0.2464756875,0.221950773,0.200605487,0.1823458135,0.164968774,0.149550341,0.135802118,0.1234946795,0.112453846,0.102505442,0.093532198,0.0854228685,0.078082969,0.0714306585,0.065394421,0.0599115015,0.0549264295,0.050389991,0.04625835515,0.04249242985,0.0390572221,0.03592143895,0.0330569502,0.03043847655,0.0280432589,0.0258508043
ratios=1.36976685331,1.21271277929,1.11071613569,1.06611533516,1.0467578215,1.03832109803,1.0342709038,1.03155075291,1.02892203227,1.02574919729,1.02177917263,1.01699500369,1.0119987482,1.00674527386,1.00371181288,1.0008354572,0.998119691452,0.995588399673,0.993246634911,0.991090063602,0.989137328163,0.987394811254,0.985890814026,0.984714197994,0.984076376209,0.984886964507,0.988951509279,0.98533431236,0.976848204918,0.976157319603,0.975053226679,0.973743031768,0.972146010153,0.970429539393,0.968635991612,0.966806102219,0.964972679252,0.963161333956,0.961392165914,0.959680616469,0.958038213449,0.95647375143,0.954993970852,0.953603683401,0.952307446601,0.951107349194,0.950004816116,0.949001642687,0.948099494302