file=suppliedInput/fromPier/histograms_ggH_May17/H125-LHC13-R04-MSbar-xmur050-xmuf050_2_1-xQ100-NNLO+NNLLmult.2_1.res
kappab=2.0
kappac=1.0
muR=1.0
muF=1.0
Q=2.0
binBoundaries=0.0,5.0,10.0,15.0,20.0,25.0,30.0,35.0,40.0,45.0,50.0,55.0,60.0,65.0,70.0,75.0,80.0,85.0,90.0,95.0,100.0,105.0,110.0,115.0,120.0,125.0,130.0,135.0,140.0,145.0,150.0,155.0,160.0,165.0,170.0,175.0,180.0,185.0,190.0,195.0,200.0,205.0,210.0,215.0,220.0,225.0,230.0,235.0,240.0,245.0
binCenters=2.75,7.5,12.5,17.5,22.5,27.5,32.5,37.5,42.5,47.5,52.5,57.5,62.5,67.5,72.5,77.5,82.5,87.5,92.5,97.5,102.5,107.5,112.5,117.5,122.5,127.5,132.5,137.5,142.5,147.5,152.5,157.5,162.5,167.5,172.5,177.5,182.5,187.5,192.5,197.5,202.5,207.5,212.5,217.5,222.5,227.5,232.5,237.5,242.5
crosssection=0.456806639,0.845667111,0.978254453,0.909324245,0.786875688,0.664461013,0.558197283,0.466748938,0.389568149,0.325639511,0.272686993,0.228866538,0.192793746,0.163431391,0.138902002,0.118841452,0.102393989,0.0889174263,0.0778955437,0.0689491002,0.0616812402,0.0558179797,0.0511103053,0.0473542466,0.0443856481,0.04102138,0.0371389466,0.0337260333,0.0308403281,0.0280271816,0.0255175683,0.0232686273,0.0212458223,0.0194208864,0.017770358,0.0162744948,0.0149164565,0.0136817259,0.012557697,0.01153332,0.0105988519,0.00974564875,0.00896601697,0.00825307847,0.00760067401,0.00700327337,0.00645589728,0.00595404676,0.00549365983
crosssection_integrated=2.284033195,4.228335555,4.891272265,4.546621225,3.93437844,3.322305065,2.790986415,2.33374469,1.947840745,1.628197555,1.363434965,1.14433269,0.96396873,0.817156955,0.69451001,0.59420726,0.511969945,0.4445871315,0.3894777185,0.344745501,0.308406201,0.2790898985,0.2555515265,0.236771233,0.2219282405,0.2051069,0.185694733,0.1686301665,0.1542016405,0.140135908,0.1275878415,0.1163431365,0.1062291115,0.097104432,0.08885179,0.081372474,0.0745822825,0.0684086295,0.062788485,0.0576666,0.0529942595,0.04872824375,0.04483008485,0.04126539235,0.03800337005,0.03501636685,0.0322794864,0.0297702338,0.02746829915
ratios=0.866638763505,0.874013020884,0.924622676271,0.955749878498,0.978093758132,1.0005488886,1.02695696788,1.05108000343,1.06883994941,1.07869025778,1.07548560097,1.0566829671,1.02411561348,0.99533251914,0.967776779351,0.94290493178,0.921427579563,0.904308729587,0.892478133479,0.887365883755,0.889293029457,0.899266484859,0.917938067952,0.945943176694,0.983976472521,1.0069869731,1.00711435563,1.00720327322,1.00723003847,1.00730897535,1.00737081989,1.00742057734,1.00746072493,1.00749272693,1.00751757959,1.00753602768,1.00754867,1.00755608561,1.00755875044,1.00755717678,1.00755179128,1.0075430903,1.00753148021,1.00751738158,1.0075011846,1.00748325697,1.00746394096,1.0074435671,1.00742244733