file=suppliedInput/fromPier/histograms_ggH_May17/H125-LHC13-R04-MSbar-xmur100-xmuf100_2_-10-xQ050-NNLO+NNLLmult.2_-10.res
kappab=2.0
kappac=-10.0
muR=2.0
muF=2.0
Q=1.0
binBoundaries=0.0,5.0,10.0,15.0,20.0,25.0,30.0,35.0,40.0,45.0,50.0,55.0,60.0,65.0,70.0,75.0,80.0,85.0,90.0,95.0,100.0,105.0,110.0,115.0,120.0,125.0,130.0,135.0,140.0,145.0,150.0,155.0,160.0,165.0,170.0,175.0,180.0,185.0,190.0,195.0,200.0,205.0,210.0,215.0,220.0,225.0,230.0,235.0,240.0,245.0
binCenters=2.75,7.5,12.5,17.5,22.5,27.5,32.5,37.5,42.5,47.5,52.5,57.5,62.5,67.5,72.5,77.5,82.5,87.5,92.5,97.5,102.5,107.5,112.5,117.5,122.5,127.5,132.5,137.5,142.5,147.5,152.5,157.5,162.5,167.5,172.5,177.5,182.5,187.5,192.5,197.5,202.5,207.5,212.5,217.5,222.5,227.5,232.5,237.5,242.5
crosssection=0.694667767,1.09456724,1.07842259,0.906978985,0.728035091,0.577503488,0.457770502,0.3640822,0.292920808,0.239944986,0.200821553,0.172532552,0.151905655,0.132540445,0.115809583,0.101664492,0.0896133812,0.079280212,0.0703711616,0.0626530044,0.0559398025,0.050079516,0.0449478898,0.0404446183,0.0364898035,0.033036335,0.0300665651,0.0272557945,0.024757083,0.0225255105,0.020525033,0.0187277948,0.0171066973,0.0156427165,0.0143181187,0.0131177793,0.0120285738,0.0110390206,0.0101390316,0.00931968344,0.00857305508,0.0078920894,0.00727048848,0.00670261342,0.00618341769,0.00570836422,0.00527337411,0.00487477444,0.00450925551
crosssection_integrated=3.473338835,5.4728362,5.39211295,4.534894925,3.640175455,2.88751744,2.28885251,1.820411,1.46460404,1.19972493,1.004107765,0.86266276,0.759528275,0.662702225,0.579047915,0.50832246,0.448066906,0.39640106,0.351855808,0.313265022,0.2796990125,0.25039758,0.224739449,0.2022230915,0.1824490175,0.165181675,0.1503328255,0.1362789725,0.123785415,0.1126275525,0.102625165,0.093638974,0.0855334865,0.0782135825,0.0715905935,0.0655888965,0.060142869,0.055195103,0.050695158,0.0465984172,0.0428652754,0.039460447,0.0363524424,0.0335130671,0.03091708845,0.0285418211,0.02636687055,0.0243738722,0.02254627755
ratios=1.31790119329,1.13125603154,1.01929919998,0.953284881032,0.904954351834,0.869607790041,0.842194365747,0.819883001052,0.803673150401,0.794824675933,0.792046170736,0.796587437207,0.80691908472,0.807199976716,0.806884160343,0.806620495462,0.806416878002,0.806296254609,0.806268497173,0.806335955916,0.806515502463,0.806815842472,0.807261449122,0.807917208314,0.808935087531,0.81097122973,0.81532924622,0.813974332242,0.808554227488,0.809576546971,0.810277808541,0.810824188569,0.811186567397,0.811493501304,0.811787601407,0.81210725189,0.812483416163,0.812940740516,0.813498686074,0.814172669734,0.814974780671,0.81591491208,0.81700113268,0.818240072138,0.819637921497,0.82119904115,0.822927322505,0.824827272712,0.826903259777