file=suppliedInput/fromPier/histograms_ggH_May17/H125-LHC13-R04-MSbar-xmur100-xmuf050_-1_0-xQ050-NNLO+NNLLmult.-1_0.res
kappab=-1.0
kappac=0.0
muR=2.0
muF=1.0
Q=1.0
binBoundaries=0.0,5.0,10.0,15.0,20.0,25.0,30.0,35.0,40.0,45.0,50.0,55.0,60.0,65.0,70.0,75.0,80.0,85.0,90.0,95.0,100.0,105.0,110.0,115.0,120.0,125.0,130.0,135.0,140.0,145.0,150.0,155.0,160.0,165.0,170.0,175.0,180.0,185.0,190.0,195.0,200.0,205.0,210.0,215.0,220.0,225.0,230.0,235.0,240.0,245.0
binCenters=2.75,7.5,12.5,17.5,22.5,27.5,32.5,37.5,42.5,47.5,52.5,57.5,62.5,67.5,72.5,77.5,82.5,87.5,92.5,97.5,102.5,107.5,112.5,117.5,122.5,127.5,132.5,137.5,142.5,147.5,152.5,157.5,162.5,167.5,172.5,177.5,182.5,187.5,192.5,197.5,202.5,207.5,212.5,217.5,222.5,227.5,232.5,237.5,242.5
crosssection=0.696169677,1.25123645,1.19659456,0.973435214,0.764817231,0.598825835,0.470561744,0.371677411,0.297228962,0.24219745,0.201820851,0.172874213,0.151993285,0.132445386,0.115600733,0.101403239,0.0893402641,0.0790195168,0.0701370956,0.0624534619,0.0557775013,0.0499547094,0.0448592111,0.0403891062,0.0364638649,0.0330353106,0.0300844244,0.0272956556,0.0248150872,0.0225983226,0.0206098617,0.0188206235,0.0172065173,0.015747279,0.0144256617,0.0132268301,0.0121378971,0.0111475853,0.0102459831,0.00942432268,0.0086748202,0.00799053653,0.00736527509,0.00679348527,0.00627019079,0.00579092249,0.00535165788,0.00494876678,0.00457897528
crosssection_integrated=3.480848385,6.25618225,5.9829728,4.86717607,3.824086155,2.994129175,2.35280872,1.858387055,1.48614481,1.21098725,1.009104255,0.864371065,0.759966425,0.66222693,0.578003665,0.507016195,0.4467013205,0.395097584,0.350685478,0.3122673095,0.2788875065,0.249773547,0.2242960555,0.201945531,0.1823193245,0.165176553,0.150422122,0.136478278,0.124075436,0.112991613,0.1030493085,0.0941031175,0.0860325865,0.078736395,0.0721283085,0.0661341505,0.0606894855,0.0557379265,0.0512299155,0.0471216134,0.043374101,0.03995268265,0.03682637545,0.03396742635,0.03135095395,0.02895461245,0.0267582894,0.0247438339,0.0228948764
ratios=1.32075056831,1.29317663568,1.13099251538,1.02313403895,0.950674892058,0.901715092315,0.86572736295,0.836986788022,0.81549323147,0.802286027799,0.795987431734,0.798164895242,0.807384573114,0.806621046846,0.805429032429,0.804547677115,0.803959139703,0.803644930173,0.803586716203,0.803767870091,0.804175515048,0.804805121319,0.805668784902,0.806808304763,0.808360059944,0.810946082905,0.815813545293,0.815164754787,0.810448616303,0.812193445199,0.813626636927,0.814843228512,0.815919955831,0.816917865367,0.817884915995,0.818858466671,0.819867780238,0.820935713151,0.82207987096,0.823314011276,0.824648812341,0.82609275946,0.827652517101,0.829333504571,0.831140059456,0.83307578369,0.835143761524,0.837347010959,0.839688409112