file=suppliedInput/fromPier/histograms_ggH_May17/H125-LHC13-R04-MSbar-xmur025-xmuf025_0_1-xQ050-NNLO+NNLLmult.0_1.res
kappab=0.0
kappac=1.0
muR=0.5
muF=0.5
Q=1.0
binBoundaries=0.0,5.0,10.0,15.0,20.0,25.0,30.0,35.0,40.0,45.0,50.0,55.0,60.0,65.0,70.0,75.0,80.0,85.0,90.0,95.0,100.0,105.0,110.0,115.0,120.0,125.0,130.0,135.0,140.0,145.0,150.0,155.0,160.0,165.0,170.0,175.0,180.0,185.0,190.0,195.0,200.0,205.0,210.0,215.0,220.0,225.0,230.0,235.0,240.0,245.0
binCenters=2.75,7.5,12.5,17.5,22.5,27.5,32.5,37.5,42.5,47.5,52.5,57.5,62.5,67.5,72.5,77.5,82.5,87.5,92.5,97.5,102.5,107.5,112.5,117.5,122.5,127.5,132.5,137.5,142.5,147.5,152.5,157.5,162.5,167.5,172.5,177.5,182.5,187.5,192.5,197.5,202.5,207.5,212.5,217.5,222.5,227.5,232.5,237.5,242.5
crosssection=0.52367148,0.955568398,1.08151151,1.00130993,0.879869219,0.754226549,0.638632332,0.53648983,0.449520417,0.37755996,0.318988883,0.271726997,0.23377762,0.203266164,0.177776309,0.156254624,0.137674645,0.121724523,0.107954008,0.0960066083,0.0855980376,0.076496447,0.0685122723,0.0614874377,0.0552905389,0.0498121945,0.0449598504,0.0406559176,0.0368366074,0.033454118,0.030505859,0.0279320091,0.025422165,0.0231722474,0.0211469873,0.0193177134,0.0176608154,0.0161566993,0.0147887136,0.0135426313,0.0124061223,0.0113684231,0.0104200845,0.00955271687,0.0087588569,0.00803183663,0.00736566933,0.00675496522,0.00619486045
crosssection_integrated=2.6183574,4.77784199,5.40755755,5.00654965,4.399346095,3.771132745,3.19316166,2.68244915,2.247602085,1.8877998,1.594944415,1.358634985,1.1688881,1.01633082,0.888881545,0.78127312,0.688373225,0.608622615,0.53977004,0.4800330415,0.427990188,0.382482235,0.3425613615,0.3074371885,0.2764526945,0.2490609725,0.224799252,0.203279588,0.184183037,0.16727059,0.152529295,0.1396600455,0.127110825,0.115861237,0.1057349365,0.096588567,0.088304077,0.0807834965,0.073943568,0.0677131565,0.0620306115,0.0568421155,0.0521004225,0.04776358435,0.0437942845,0.04015918315,0.03682834665,0.0337748261,0.03097430225
ratios=0.993492574678,0.987598088342,1.02221877317,1.05243190116,1.09368557728,1.1357183049,1.17493929697,1.20813072392,1.23332818917,1.25067824027,1.25810163059,1.25457086011,1.24182093918,1.23793490242,1.2386270989,1.23974634358,1.23891271498,1.23796373033,1.23686910682,1.2355924671,1.23411490959,1.23241097882,1.23047636865,1.2282662342,1.22572479528,1.22278263098,1.21919749778,1.21415919026,1.20306558893,1.20235540644,1.20429626487,1.20932276627,1.20549971748,1.2021011936,1.19896073339,1.19593833554,1.19291944889,1.18981923933,1.18656293391,1.18309171677,1.1793551664,1.17531181719,1.17092831693,1.16617433395,1.16102317911,1.15545124401,1.14943685272,1.14296150689,1.13600799259