file=suppliedInput/fromPier/histograms_ggH_May17/H125-LHC13-R04-MSbar-xmur025-xmuf025_2_10-xQ050-NNLO+NNLLmult.2_10.res
kappab=2.0
kappac=10.0
muR=0.5
muF=0.5
Q=1.0
binBoundaries=0.0,5.0,10.0,15.0,20.0,25.0,30.0,35.0,40.0,45.0,50.0,55.0,60.0,65.0,70.0,75.0,80.0,85.0,90.0,95.0,100.0,105.0,110.0,115.0,120.0,125.0,130.0,135.0,140.0,145.0,150.0,155.0,160.0,165.0,170.0,175.0,180.0,185.0,190.0,195.0,200.0,205.0,210.0,215.0,220.0,225.0,230.0,235.0,240.0,245.0
binCenters=2.75,7.5,12.5,17.5,22.5,27.5,32.5,37.5,42.5,47.5,52.5,57.5,62.5,67.5,72.5,77.5,82.5,87.5,92.5,97.5,102.5,107.5,112.5,117.5,122.5,127.5,132.5,137.5,142.5,147.5,152.5,157.5,162.5,167.5,172.5,177.5,182.5,187.5,192.5,197.5,202.5,207.5,212.5,217.5,222.5,227.5,232.5,237.5,242.5
crosssection=0.385016739,0.632129366,0.852407313,0.872718487,0.807086615,0.710550742,0.610804488,0.518285535,0.437651391,0.370037715,0.31450782,0.269376591,0.232895973,0.203353799,0.178497749,0.157380105,0.139045133,0.123228746,0.109514609,0.0975702841,0.0871287252,0.0779704776,0.0699148817,0.0628102294,0.0565296304,0.050966862,0.0460315355,0.0416475027,0.0377518857,0.0342974008,0.0312816075,0.0286457227,0.0260792253,0.0237771506,0.0217039851,0.0198307277,0.0181334357,0.016592205,0.0151901019,0.0139126454,0.0127472765,0.0116830248,0.0107102537,0.00982040286,0.00900585287,0.00825979256,0.00757610358,0.00694927496,0.00637433115
crosssection_integrated=1.925083695,3.16064683,4.262036565,4.363592435,4.035433075,3.55275371,3.05402244,2.591427675,2.188256955,1.850188575,1.5725391,1.346882955,1.164479865,1.016768995,0.892488745,0.786900525,0.695225665,0.61614373,0.547573045,0.4878514205,0.435643626,0.389852388,0.3495744085,0.314051147,0.282648152,0.25483431,0.2301576775,0.2082375135,0.1887594285,0.171487004,0.1564080375,0.1432286135,0.1303961265,0.118885753,0.1085199255,0.0991536385,0.0906671785,0.082961025,0.0759505095,0.069563227,0.0637363825,0.058415124,0.0535512685,0.0491020143,0.04502926435,0.0412989628,0.0378805179,0.0347463748,0.03187165575
ratios=0.730441289877,0.653317705727,0.805674974033,0.917275210135,1.00321612733,1.06995104498,1.12374234713,1.16713615727,1.20076369645,1.22576058709,1.240428185,1.24371897234,1.23713765211,1.23846861853,1.24365361306,1.24867606943,1.25124552331,1.25326199128,1.25474949126,1.25571676973,1.2561836911,1.25615863725,1.25566715073,1.25469017445,1.2531939646,1.25112724373,1.24825888879,1.24377215273,1.23295813075,1.23266335339,1.2349209072,1.24022316093,1.23665701687,1.23348161372,1.23054057411,1.22769848517,1.22484311351,1.22189095466,1.21876806627,1.21541635199,1.21178608708,1.20783656512,1.20353528216,1.19885284158,1.19376352977,1.18824473509,1.18227580749,1.17583933024,1.16891916973