file=suppliedInput/fromPier/histograms_ggH_May17/H125-LHC13-R04-MSbar-xmur050-xmuf050_-1_0-xQ100-NNLO+NNLLmult.-1_0.res
kappab=-1.0
kappac=0.0
muR=1.0
muF=1.0
Q=2.0
binBoundaries=0.0,5.0,10.0,15.0,20.0,25.0,30.0,35.0,40.0,45.0,50.0,55.0,60.0,65.0,70.0,75.0,80.0,85.0,90.0,95.0,100.0,105.0,110.0,115.0,120.0,125.0,130.0,135.0,140.0,145.0,150.0,155.0,160.0,165.0,170.0,175.0,180.0,185.0,190.0,195.0,200.0,205.0,210.0,215.0,220.0,225.0,230.0,235.0,240.0,245.0
binCenters=2.75,7.5,12.5,17.5,22.5,27.5,32.5,37.5,42.5,47.5,52.5,57.5,62.5,67.5,72.5,77.5,82.5,87.5,92.5,97.5,102.5,107.5,112.5,117.5,122.5,127.5,132.5,137.5,142.5,147.5,152.5,157.5,162.5,167.5,172.5,177.5,182.5,187.5,192.5,197.5,202.5,207.5,212.5,217.5,222.5,227.5,232.5,237.5,242.5
crosssection=0.646279882,1.16718169,1.20558324,1.04043898,0.859788186,0.705754708,0.582812207,0.481903044,0.399081257,0.331691789,0.276478551,0.23110756,0.193952562,0.163845522,0.138763423,0.118323244,0.101616241,0.0879703176,0.0768477951,0.0678589855,0.0605872894,0.0547503345,0.0500894347,0.0463932526,0.0434924474,0.0401946664,0.0363732651,0.0330192046,0.0301893015,0.0274272347,0.024965219,0.0227603258,0.020778182,0.0189907403,0.0173747657,0.0159107332,0.0145820055,0.0133742536,0.0122750461,0.0112734949,0.010360008,0.00952608178,0.00876415384,0.00806746844,0.00742998046,0.00684626599,0.00631144462,0.00582110921,0.00537128289
crosssection_integrated=3.23139941,5.83590845,6.0279162,5.2021949,4.29894093,3.52877354,2.914061035,2.40951522,1.995406285,1.658458945,1.382392755,1.1555378,0.96976281,0.81922761,0.693817115,0.59161622,0.508081205,0.439851588,0.3842389755,0.3392949275,0.302936447,0.2737516725,0.2504471735,0.231966263,0.217462237,0.200973332,0.1818663255,0.165096023,0.1509465075,0.1371361735,0.124826095,0.113801629,0.10389091,0.0949537015,0.0868738285,0.079553666,0.0729100275,0.066871268,0.0613752305,0.0563674745,0.05180004,0.0476304089,0.0438207692,0.0403373422,0.0371499023,0.03423132995,0.0315572231,0.02910554605,0.02685641445
ratios=1.22610126473,1.20630444477,1.1394884004,1.09355868843,1.06872466753,1.06272915175,1.07224287035,1.08520579674,1.09494061985,1.09873860295,1.09043961835,1.067029826,1.03027121543,0.997854666501,0.966811253035,0.938793396027,0.91442874629,0.894676437011,0.880473689188,0.873336250426,0.87352092731,0.882065977939,0.899603292202,0.926746467161,0.964175286514,0.986692925804,0.986351008768,0.986094351989,0.985967827984,0.985746625427,0.985565428375,0.985413546839,0.985285577791,0.985178139514,0.985088870133,0.985015948134,0.984957804652,0.984913066059,0.984880437087,0.98485871318,0.984846728355,0.984843402559,0.984847666557,0.984858523784,0.984875039389,0.984896346794,0.984921629669,0.984950112654,0.984981073057