file=suppliedInput/fromPier/histograms_ggH_May17/H125-LHC13-R04-MSbar-xmur050-xmuf100_1_-10-xQ050-NNLO+NNLLmult.1_-10.res
kappab=1.0
kappac=-10.0
muR=1.0
muF=2.0
Q=1.0
binBoundaries=0.0,5.0,10.0,15.0,20.0,25.0,30.0,35.0,40.0,45.0,50.0,55.0,60.0,65.0,70.0,75.0,80.0,85.0,90.0,95.0,100.0,105.0,110.0,115.0,120.0,125.0,130.0,135.0,140.0,145.0,150.0,155.0,160.0,165.0,170.0,175.0,180.0,185.0,190.0,195.0,200.0,205.0,210.0,215.0,220.0,225.0,230.0,235.0,240.0,245.0
binCenters=2.75,7.5,12.5,17.5,22.5,27.5,32.5,37.5,42.5,47.5,52.5,57.5,62.5,67.5,72.5,77.5,82.5,87.5,92.5,97.5,102.5,107.5,112.5,117.5,122.5,127.5,132.5,137.5,142.5,147.5,152.5,157.5,162.5,167.5,172.5,177.5,182.5,187.5,192.5,197.5,202.5,207.5,212.5,217.5,222.5,227.5,232.5,237.5,242.5
crosssection=0.751221493,1.12140814,1.12634363,0.983059274,0.82275088,0.67724381,0.55415173,0.452796431,0.37156137,0.307445946,0.257718416,0.219517723,0.190172673,0.165225799,0.144149965,0.126343126,0.111184707,0.0981996586,0.0870160738,0.077338464,0.0689313734,0.0616019796,0.0551927328,0.049576813,0.0446535894,0.0403660008,0.036696038,0.0332036427,0.0301038512,0.027339097,0.0248635069,0.02264222,0.020640361,0.0188344298,0.0172021291,0.0157245131,0.0143851651,0.0131697344,0.0120656236,0.0110616933,0.0101480575,0.00931590809,0.00855738707,0.00786545818,0.00723382738,0.00665683532,0.00612939502,0.00564692568,0.00520530181
crosssection_integrated=3.756107465,5.6070407,5.63171815,4.91529637,4.1137544,3.38621905,2.77075865,2.263982155,1.85780685,1.53722973,1.28859208,1.097588615,0.950863365,0.826128995,0.720749825,0.63171563,0.555923535,0.490998293,0.435080369,0.38669232,0.344656867,0.308009898,0.275963664,0.247884065,0.223267947,0.201830004,0.18348019,0.1660182135,0.150519256,0.136695485,0.1243175345,0.1132111,0.103201805,0.094172149,0.0860106455,0.0786225655,0.0719258255,0.065848672,0.060328118,0.0553084665,0.0507402875,0.04657954045,0.04278693535,0.0393272909,0.0361691369,0.0332841766,0.0306469751,0.0282346284,0.02602650905
ratios=1.42519309097,1.15899661148,1.0645930191,1.03324945623,1.0226869536,1.01979729157,1.01951406379,1.01966011168,1.01943559023,1.01842354979,1.01644908861,1.01351923657,1.01019253849,1.00626085197,1.00434109561,1.00242427703,1.00053388344,0.998710963753,0.996975429387,0.99533589643,0.993822265518,0.992450747106,0.991258225011,0.990340916533,0.98991640911,0.990898818166,0.995103793942,0.991602460707,0.983177062961,0.982578918537,0.981550084892,0.980300129031,0.978750210856,0.977069256703,0.975300974505,0.973487267083,0.97166200057,0.969851767061,0.968077557354,0.966355608946,0.964698215295,0.963114828653,0.961612819854,0.96019756255,0.958874126812,0.957645057533,0.956512192605,0.955477707773,0.954543610418