file=suppliedInput/fromPier/histograms_ggH_May17/H125-LHC13-R04-MSbar-xmur050-xmuf050_0_0-xQ050-NNLO+NNLLmult.0_0.res
kappab=0.0
kappac=0.0
muR=1.0
muF=1.0
Q=1.0
binBoundaries=0.0,5.0,10.0,15.0,20.0,25.0,30.0,35.0,40.0,45.0,50.0,55.0,60.0,65.0,70.0,75.0,80.0,85.0,90.0,95.0,100.0,105.0,110.0,115.0,120.0,125.0,130.0,135.0,140.0,145.0,150.0,155.0,160.0,165.0,170.0,175.0,180.0,185.0,190.0,195.0,200.0,205.0,210.0,215.0,220.0,225.0,230.0,235.0,240.0,245.0
binCenters=2.75,7.5,12.5,17.5,22.5,27.5,32.5,37.5,42.5,47.5,52.5,57.5,62.5,67.5,72.5,77.5,82.5,87.5,92.5,97.5,102.5,107.5,112.5,117.5,122.5,127.5,132.5,137.5,142.5,147.5,152.5,157.5,162.5,167.5,172.5,177.5,182.5,187.5,192.5,197.5,202.5,207.5,212.5,217.5,222.5,227.5,232.5,237.5,242.5
crosssection=0.603530113,1.09021891,1.13567798,0.992892232,0.827269505,0.677592264,0.5521051,0.449657798,0.368129811,0.304199353,0.254937837,0.21734206,0.188579313,0.164248803,0.143397171,0.125791078,0.110806827,0.0979671048,0.0869018254,0.077318741,0.0689840166,0.0617076999,0.0553337787,0.0497342531,0.0448031075,0.0404524687,0.0366130598,0.0332413693,0.0303945619,0.0276169114,0.0251402685,0.0229217586,0.0209269816,0.0191278395,0.0175010408,0.0160270035,0.014689036,0.0134727569,0.0123656859,0.0113568886,0.010436729,0.00959666192,0.00882908607,0.00812720879,0.00748495027,0.00689685408,0.00635800938,0.00586398057,0.00541076431
crosssection_integrated=3.017650565,5.45109455,5.6783899,4.96446116,4.136347525,3.38796132,2.7605255,2.24828899,1.840649055,1.520996765,1.274689185,1.0867103,0.942896565,0.821244015,0.716985855,0.62895539,0.554034135,0.489835524,0.434509127,0.386593705,0.344920083,0.3085384995,0.2766688935,0.2486712655,0.2240155375,0.2022623435,0.183065299,0.1662068465,0.1519728095,0.138084557,0.1257013425,0.114608793,0.104634908,0.0956391975,0.087505204,0.0801350175,0.07344518,0.0673637845,0.0618284295,0.056784443,0.052183645,0.0479833096,0.04414543035,0.04063604395,0.03742475135,0.0344842704,0.0317900469,0.02931990285,0.02705382155
ratios=1.14499778728,1.1267619499,1.07341562313,1.04358443681,1.02830364627,1.02032199543,1.01574872668,1.01259216976,1.01002058195,1.00766911698,1.00548240244,1.00347414193,1.00172864956,1.00031073502,0.999096127631,0.998044249915,0.997133400103,0.996345843211,0.995666443097,0.995082064005,0.994581252054,0.994153974687,0.993791401054,0.993485922505,0.993231045686,0.993021419817,0.992853634902,0.992729137973,0.9926715323,0.992563687701,0.99247595199,0.992402817091,0.992341541583,0.992290402261,0.992248229732,0.9922141142,0.992187298998,0.992167092348,0.992152863204,0.992144032666,0.992140007072,0.992140252076,0.992144247193,0.992151492247,0.992161518012,0.992173894162,0.992188213163,0.992204082532,0.992221140697