file=suppliedInput/fromPier/histograms_ggH_May17/H125-LHC13-R04-MSbar-xmur025-xmuf050_-1_0-xQ050-NNLO+NNLLmult.-1_0.res
kappab=-1.0
kappac=0.0
muR=0.5
muF=1.0
Q=1.0
binBoundaries=0.0,5.0,10.0,15.0,20.0,25.0,30.0,35.0,40.0,45.0,50.0,55.0,60.0,65.0,70.0,75.0,80.0,85.0,90.0,95.0,100.0,105.0,110.0,115.0,120.0,125.0,130.0,135.0,140.0,145.0,150.0,155.0,160.0,165.0,170.0,175.0,180.0,185.0,190.0,195.0,200.0,205.0,210.0,215.0,220.0,225.0,230.0,235.0,240.0,245.0
binCenters=2.75,7.5,12.5,17.5,22.5,27.5,32.5,37.5,42.5,47.5,52.5,57.5,62.5,67.5,72.5,77.5,82.5,87.5,92.5,97.5,102.5,107.5,112.5,117.5,122.5,127.5,132.5,137.5,142.5,147.5,152.5,157.5,162.5,167.5,172.5,177.5,182.5,187.5,192.5,197.5,202.5,207.5,212.5,217.5,222.5,227.5,232.5,237.5,242.5
crosssection=0.610057854,1.09738604,1.1755907,1.05898079,0.917648349,0.780657974,0.658010197,0.551036043,0.460430266,0.385553009,0.324517768,0.275102119,0.235320859,0.203709429,0.177497177,0.155477037,0.136551519,0.120375509,0.106466313,0.0944452223,0.0840106364,0.0749181433,0.0669670192,0.0599928464,0.0538588499,0.0484500834,0.0436718039,0.0394443621,0.0357015931,0.0323949885,0.0295232173,0.0270238309,0.0245752833,0.0223839504,0.0204144692,0.0186382697,0.017031852,0.0155756036,0.0142529717,0.0130497886,0.0119538127,0.0109543576,0.0100420389,0.00920855346,0.00844652856,0.00774938577,0.00711122904,0.00652674453,0.00599114485
crosssection_integrated=3.05028927,5.4869302,5.8779535,5.29490395,4.588241745,3.90328987,3.290050985,2.755180215,2.30215133,1.927765045,1.62258884,1.375510595,1.176604295,1.018547145,0.887485885,0.777385185,0.682757595,0.601877545,0.532331565,0.4722261115,0.420053182,0.3745907165,0.334835096,0.299964232,0.2692942495,0.242250417,0.2183590195,0.1972218105,0.1785079655,0.1619749425,0.1476160865,0.1351191545,0.1228764165,0.111919752,0.102072346,0.0931913485,0.08515926,0.077878018,0.0712648585,0.065248943,0.0597690635,0.054771788,0.0502101945,0.0460427673,0.0422326428,0.03874692885,0.0355561452,0.03263372265,0.02995572425
ratios=1.15738200612,1.13416931488,1.11114017002,1.11304715226,1.14064538529,1.1755188837,1.21059019333,1.24088759248,1.26326103271,1.27715544526,1.27990771728,1.27015388925,1.2500185866,1.24063448214,1.23668229275,1.23357685806,1.22880587881,1.22424397721,1.21982403346,1.2154976339,1.21122845631,1.20698340821,1.20272371413,1.1984104442,1.19398597085,1.18934572238,1.1842689325,1.17797697297,1.16599657678,1.16428983614,1.16550398798,1.17000298196,1.16534123176,1.16120689671,1.15742950126,1.15387472528,1.15043541542,1.14702591682,1.14357802678,1.14003670751,1.13635755194,1.13250411458,1.12844648311,1.12415963375,1.11962274908,1.11481817182,1.10973061109,1.10434584341,1.09865080727