file=suppliedInput/fromPier/histograms_ggH_May17/H125-LHC13-R04-MSbar-xmur025-xmuf025_-1_-10-xQ050-NNLO+NNLLmult.-1_-10.res
kappab=-1.0
kappac=-10.0
muR=0.5
muF=0.5
Q=1.0
binBoundaries=0.0,5.0,10.0,15.0,20.0,25.0,30.0,35.0,40.0,45.0,50.0,55.0,60.0,65.0,70.0,75.0,80.0,85.0,90.0,95.0,100.0,105.0,110.0,115.0,120.0,125.0,130.0,135.0,140.0,145.0,150.0,155.0,160.0,165.0,170.0,175.0,180.0,185.0,190.0,195.0,200.0,205.0,210.0,215.0,220.0,225.0,230.0,235.0,240.0,245.0
binCenters=2.75,7.5,12.5,17.5,22.5,27.5,32.5,37.5,42.5,47.5,52.5,57.5,62.5,67.5,72.5,77.5,82.5,87.5,92.5,97.5,102.5,107.5,112.5,117.5,122.5,127.5,132.5,137.5,142.5,147.5,152.5,157.5,162.5,167.5,172.5,177.5,182.5,187.5,192.5,197.5,202.5,207.5,212.5,217.5,222.5,227.5,232.5,237.5,242.5
crosssection=0.69567054,1.28972077,1.30358853,1.12058864,0.946224737,0.794691815,0.665586023,0.555239214,0.462685989,0.386704334,0.325163433,0.275695175,0.23613649,0.204592705,0.17840129,0.156394005,0.137481483,0.121308676,0.107394408,0.0953599779,0.0849049657,0.0757857321,0.0678040709,0.0607955682,0.054624178,0.0491771333,0.0443594246,0.0400916997,0.0363089215,0.0329624291,0.0300491183,0.0275081529,0.0250289151,0.0228076969,0.0208092078,0.0190048472,0.0173711043,0.0158884919,0.0145404638,0.0133128939,0.0121935474,0.0111717507,0.010238139,0.0093844028,0.00860315389,0.00788779538,0.00723240755,0.00663166371,0.00608075937
crosssection_integrated=3.4783527,6.44860385,6.51794265,5.6029432,4.731123685,3.973459075,3.327930115,2.77619607,2.313429945,1.93352167,1.625817165,1.378475875,1.18068245,1.022963525,0.89200645,0.781970025,0.687407415,0.60654338,0.53697204,0.4767998895,0.4245248285,0.3789286605,0.3390203545,0.303977841,0.27312089,0.2458856665,0.221797123,0.2004584985,0.1815446075,0.1648121455,0.1502455915,0.1375407645,0.1251445755,0.1140384845,0.104046039,0.095024236,0.0868555215,0.0794424595,0.072702319,0.0665644695,0.060967737,0.0558587535,0.051190695,0.046922014,0.04301576945,0.0394389769,0.03616203775,0.03315831855,0.03040379685
ratios=1.31980362175,1.33295091132,1.23212065293,1.17780039674,1.17616609989,1.1966511153,1.22452800266,1.25035278593,1.26944995463,1.28096924248,1.28245423922,1.27289204476,1.25435119831,1.24601382402,1.24298155089,1.2408522122,1.23717448019,1.2337344798,1.23045756208,1.22727041859,1.22412250335,1.22096086735,1.21775711329,1.21444552582,1.210952375,1.20719323941,1.20291546778,1.19730923609,1.18583162541,1.18468389565,1.18626526567,1.19097181448,1.18685210649,1.18318949359,1.17980980889,1.17656913409,1.17335058992,1.17006778399,1.16664477071,1.16302173118,1.15914729641,1.15497905918,1.15048269212,1.14562692832,1.14038409278,1.13472962712,1.12864091495,1.12209850092,1.11508423815