file=suppliedInput/fromPier/histograms_ggH_May17/H125-LHC13-R04-MSbar-xmur025-xmuf025_1_-5-xQ050-NNLO+NNLLmult.1_-5.res
kappab=1.0
kappac=-5.0
muR=0.5
muF=0.5
Q=1.0
binBoundaries=0.0,5.0,10.0,15.0,20.0,25.0,30.0,35.0,40.0,45.0,50.0,55.0,60.0,65.0,70.0,75.0,80.0,85.0,90.0,95.0,100.0,105.0,110.0,115.0,120.0,125.0,130.0,135.0,140.0,145.0,150.0,155.0,160.0,165.0,170.0,175.0,180.0,185.0,190.0,195.0,200.0,205.0,210.0,215.0,220.0,225.0,230.0,235.0,240.0,245.0
binCenters=2.75,7.5,12.5,17.5,22.5,27.5,32.5,37.5,42.5,47.5,52.5,57.5,62.5,67.5,72.5,77.5,82.5,87.5,92.5,97.5,102.5,107.5,112.5,117.5,122.5,127.5,132.5,137.5,142.5,147.5,152.5,157.5,162.5,167.5,172.5,177.5,182.5,187.5,192.5,197.5,202.5,207.5,212.5,217.5,222.5,227.5,232.5,237.5,242.5
crosssection=0.526805656,0.924880778,1.05176175,0.981540665,0.86775755,0.747003592,0.634407274,0.534116729,0.448295796,0.377045548,0.318910814,0.271910847,0.234114183,0.203716266,0.17829314,0.156802157,0.138228925,0.122269605,0.108479593,0.0965063334,0.0860683025,0.0769355788,0.0689199282,0.0618641742,0.0556375013,0.0501308948,0.045252008,0.0409233475,0.0370811418,0.0336775509,0.0307098895,0.028118489,0.0255927965,0.0233284592,0.0212900863,0.0194488788,0.0177811084,0.0162670761,0.0148900375,0.0136356838,0.0124916125,0.0114469953,0.0104923254,0.00961916118,0.00881999257,0.00808810914,0.00741748562,0.00680269717,0.00623884797
crosssection_integrated=2.63402828,4.62440389,5.25880875,4.907703325,4.33878775,3.73501796,3.17203637,2.670583645,2.24147898,1.88522774,1.59455407,1.359554235,1.170570915,1.01858133,0.8914657,0.784010785,0.691144625,0.611348025,0.542397965,0.482531667,0.4303415125,0.384677894,0.344599641,0.309320871,0.2781875065,0.250654474,0.22626004,0.2046167375,0.185405709,0.1683877545,0.1535494475,0.140592445,0.1279639825,0.116642296,0.1064504315,0.097244394,0.088905542,0.0813353805,0.0744501875,0.068178419,0.0624580625,0.0572349765,0.052461627,0.0480958059,0.04409996285,0.0404405457,0.0370874281,0.03401348585,0.03119423985
ratios=0.999438631896,0.955881850225,0.994100012631,1.03165331451,1.07863066069,1.12484193826,1.16716614421,1.20278669675,1.22996825368,1.24897423571,1.25779372414,1.25541970051,1.24360875351,1.24067612095,1.24222803361,1.24409054804,1.24390059448,1.2435073277,1.24289092909,1.24202386365,1.24089498237,1.23948569762,1.23779784456,1.23579188073,1.23341653468,1.23060604039,1.22712007341,1.22214578828,1.21105196289,1.21038568107,1.21235088706,1.21739645648,1.21359093335,1.21020495617,1.20707394968,1.20405864083,1.20104477357,1.19794765948,1.19469259193,1.19122083433,1.18748206589,1.18343491697,1.17904618924,1.17428570688,1.16912696831,1.16354654582,1.15752295469,1.15103790398,1.14407438483