file=suppliedInput/fromPier/histograms_ggH_May17/H125-LHC13-R04-MSbar-xmur050-xmuf100_-1_1-xQ050-NNLO+NNLLmult.-1_1.res
kappab=-1.0
kappac=1.0
muR=1.0
muF=2.0
Q=1.0
binBoundaries=0.0,5.0,10.0,15.0,20.0,25.0,30.0,35.0,40.0,45.0,50.0,55.0,60.0,65.0,70.0,75.0,80.0,85.0,90.0,95.0,100.0,105.0,110.0,115.0,120.0,125.0,130.0,135.0,140.0,145.0,150.0,155.0,160.0,165.0,170.0,175.0,180.0,185.0,190.0,195.0,200.0,205.0,210.0,215.0,220.0,225.0,230.0,235.0,240.0,245.0
binCenters=2.75,7.5,12.5,17.5,22.5,27.5,32.5,37.5,42.5,47.5,52.5,57.5,62.5,67.5,72.5,77.5,82.5,87.5,92.5,97.5,102.5,107.5,112.5,117.5,122.5,127.5,132.5,137.5,142.5,147.5,152.5,157.5,162.5,167.5,172.5,177.5,182.5,187.5,192.5,197.5,202.5,207.5,212.5,217.5,222.5,227.5,232.5,237.5,242.5
crosssection=0.664916799,1.21297102,1.22184915,1.04642572,0.862794635,0.703007003,0.571093025,0.464033244,0.378985033,0.312255612,0.260717459,0.221250279,0.191025343,0.165519606,0.144075875,0.126027489,0.110716184,0.0976404614,0.0864096608,0.0767149098,0.0683111701,0.0609987537,0.0546152018,0.049030201,0.0441406602,0.0398878474,0.0362520639,0.0327920972,0.0297232372,0.0269876413,0.0245393723,0.0223435875,0.020365466,0.0185815792,0.0169697093,0.0155109943,0.014189103,0.0129897706,0.0119004851,0.0109101911,0.0100090841,0.00918843511,0.00844046198,0.00775820065,0.00713542551,0.00656654169,0.00604652269,0.00557084414,0.00513543307
crosssection_integrated=3.324583995,6.0648551,6.10924575,5.2321286,4.313973175,3.515035015,2.855465125,2.32016622,1.894925165,1.56127806,1.303587295,1.106251395,0.955126715,0.82759803,0.720379375,0.630137445,0.55358092,0.488202307,0.432048304,0.383574549,0.3415558505,0.3049937685,0.273076009,0.245151005,0.220703301,0.199439237,0.1812603195,0.163960486,0.148616186,0.1349382065,0.1226968615,0.1117179375,0.10182733,0.092907896,0.0848485465,0.0775549715,0.070945515,0.064948853,0.0595024255,0.0545509555,0.0500454205,0.04594217555,0.0422023099,0.03879100325,0.03567712755,0.03283270845,0.03023261345,0.0278542207,0.02567716535
ratios=1.26145862017,1.253628587,1.15486254891,1.09985108199,1.07246171144,1.05859164311,1.05068222149,1.04496448516,1.03980354795,1.03435570692,1.0282774033,1.02151849426,1.01472190046,1.00805020014,1.00382488576,0.999919968312,0.996317717846,0.993023811857,0.990027530745,0.987310835593,0.984880446746,0.9827323582,0.980885802322,0.979421855861,0.978545385222,0.979161176845,0.983064338584,0.979311955892,0.970746395797,0.96994744934,0.968754048298,0.967370766173,0.965714899157,0.963952185976,0.962123579072,0.960268553615,0.958418767628,0.956598788365,0.954827775909,0.95312029345,0.95148707701,0.949936175955,0.948473684673,0.94710380291,0.945830546669,0.944655514553,0.943579693751,0.942604470269,0.941731143098