file=suppliedInput/fromPier/histograms_ggH_May17/H125-LHC13-R04-MSbar-xmur050-xmuf025_-1_10-xQ050-NNLO+NNLLmult.-1_10.res
kappab=-1.0
kappac=10.0
muR=1.0
muF=0.5
Q=1.0
binBoundaries=0.0,5.0,10.0,15.0,20.0,25.0,30.0,35.0,40.0,45.0,50.0,55.0,60.0,65.0,70.0,75.0,80.0,85.0,90.0,95.0,100.0,105.0,110.0,115.0,120.0,125.0,130.0,135.0,140.0,145.0,150.0,155.0,160.0,165.0,170.0,175.0,180.0,185.0,190.0,195.0,200.0,205.0,210.0,215.0,220.0,225.0,230.0,235.0,240.0,245.0
binCenters=2.75,7.5,12.5,17.5,22.5,27.5,32.5,37.5,42.5,47.5,52.5,57.5,62.5,67.5,72.5,77.5,82.5,87.5,92.5,97.5,102.5,107.5,112.5,117.5,122.5,127.5,132.5,137.5,142.5,147.5,152.5,157.5,162.5,167.5,172.5,177.5,182.5,187.5,192.5,197.5,202.5,207.5,212.5,217.5,222.5,227.5,232.5,237.5,242.5
crosssection=0.545774911,1.05438303,1.12660444,0.986811559,0.82000995,0.669429252,0.543756118,0.441625747,0.360830529,0.29791336,0.249860914,0.213599497,0.186139996,0.162367592,0.14215344,0.125108331,0.110429081,0.0978354434,0.086965452,0.0775339111,0.0693139616,0.062121428,0.0558060684,0.0502431568,0.045329204,0.0409781056,0.0371171799,0.0336855083,0.0306328694,0.027921087,0.0255443578,0.0234571967,0.0214391495,0.0196250056,0.0179878089,0.0165055166,0.0151598669,0.0139356017,0.0128197054,0.0118010086,0.0108698041,0.0100175984,0.00923691561,0.00852111202,0.00786427016,0.00726109798,0.00670684155,0.00619721856,0.00572836375
crosssection_integrated=2.728874555,5.27191515,5.6330222,4.934057795,4.10004975,3.34714626,2.71878059,2.208128735,1.804152645,1.4895668,1.24930457,1.067997485,0.93069998,0.81183796,0.7107672,0.625541655,0.552145405,0.489177217,0.43482726,0.3876695555,0.346569808,0.31060714,0.279030342,0.251215784,0.22664602,0.204890528,0.1855858995,0.1684275415,0.153164347,0.139605435,0.127721789,0.1172859835,0.1071957475,0.098125028,0.0899390445,0.082527583,0.0757993345,0.0696780085,0.064098527,0.059005043,0.0543490205,0.050087992,0.04618457805,0.0426055601,0.0393213508,0.0363054899,0.03353420775,0.0309860928,0.02864181875
ratios=1.03542648823,1.08972488729,1.06483953047,1.03719331449,1.01927995226,1.00803008902,1.00038848488,0.994504655246,0.989993882586,0.986846584151,0.985458867308,0.986194627806,0.988771057945,0.988853753145,0.990430637111,0.992627238404,0.993734122608,0.995006819374,0.996395436651,0.997851274994,0.999338254145,1.0008194222,1.0022736962,1.00365172636,1.00489397279,1.00592467931,1.00652409775,1.00599302378,1.00045453875,1.00349588974,1.00842840344,1.01558473293,1.01662815363,1.01808177035,1.01984629039,1.02183833258,1.0239900966,1.02625212653,1.02858082608,1.03094260007,1.03330914472,1.03565830334,1.0379729693,1.04023831855,1.04244195867,1.04457362373,1.0466246172,1.04858900574,1.05046224317