file=suppliedInput/fromPier/histograms_ggH_May17/H125-LHC13-R04-MSbar-xmur050-xmuf050_0_5-xQ100-NNLO+NNLLmult.0_5.res
kappab=0.0
kappac=5.0
muR=1.0
muF=1.0
Q=2.0
binBoundaries=0.0,5.0,10.0,15.0,20.0,25.0,30.0,35.0,40.0,45.0,50.0,55.0,60.0,65.0,70.0,75.0,80.0,85.0,90.0,95.0,100.0,105.0,110.0,115.0,120.0,125.0,130.0,135.0,140.0,145.0,150.0,155.0,160.0,165.0,170.0,175.0,180.0,185.0,190.0,195.0,200.0,205.0,210.0,215.0,220.0,225.0,230.0,235.0,240.0,245.0
binCenters=2.75,7.5,12.5,17.5,22.5,27.5,32.5,37.5,42.5,47.5,52.5,57.5,62.5,67.5,72.5,77.5,82.5,87.5,92.5,97.5,102.5,107.5,112.5,117.5,122.5,127.5,132.5,137.5,142.5,147.5,152.5,157.5,162.5,167.5,172.5,177.5,182.5,187.5,192.5,197.5,202.5,207.5,212.5,217.5,222.5,227.5,232.5,237.5,242.5
crosssection=0.532315781,0.986066359,1.08072015,0.969888937,0.821309999,0.684290056,0.570055957,0.473940801,0.393906653,0.328199703,0.2740893,0.229491869,0.192897186,0.163194778,0.138430548,0.118224054,0.101690349,0.088170053,0.0771349656,0.0681995804,0.0609575606,0.0551308281,0.0504661142,0.0467564101,0.0438356464,0.0405162,0.0366739971,0.0332991265,0.0304489493,0.0276680186,0.0251881233,0.0229664591,0.0209686575,0.0191666359,0.0175371094,0.0160604982,0.0147201097,0.0135015598,0.0123923641,0.011381583,0.0104595747,0.00961778806,0.00884861503,0.00814525635,0.00750162548,0.0069122593,0.00637224038,0.00587712677,0.00542290897
crosssection_integrated=2.661578905,4.930331795,5.40360075,4.849444685,4.106549995,3.42145028,2.850279785,2.369704005,1.969533265,1.640998515,1.3704465,1.147459345,0.96448593,0.81597389,0.69215274,0.59112027,0.508451745,0.440850265,0.385674828,0.340997902,0.304787803,0.2756541405,0.252330571,0.2337820505,0.219178232,0.202581,0.1833699855,0.1664956325,0.1522447465,0.138340093,0.1259406165,0.1148322955,0.1048432875,0.0958331795,0.087685547,0.080302491,0.0736005485,0.067507799,0.0619618205,0.056907915,0.0522978735,0.0480889403,0.04424307515,0.04072628175,0.0375081274,0.0345612965,0.0318612019,0.02938563385,0.02711454485
ratios=1.00989226262,1.01911831028,1.02147079865,1.01940670645,1.02089592519,1.03040756586,1.04877425052,1.06727548407,1.08074330035,1.08717096751,1.08101634143,1.05957013716,1.02466508421,0.993891494794,0.964492001398,0.938006408502,0.915095632655,0.896707787594,0.88376390811,0.877719662154,0.87885933484,0.88819599454,0.9063684338,0.934000861093,0.971783595863,0.99458588666,0.994506100447,0.994454014432,0.994447798195,0.994400502476,0.994365141765,0.994338135532,0.994317781045,0.994303033921,0.99429319408,0.994287734143,0.994286206678,0.99428820904,0.99429337144,0.994301349029,0.994311773049,0.994324354635,0.994338760324,0.994354698052,0.994371886962,0.994390072283,0.99440900738,0.994428461203,0.994448217633