file=suppliedInput/fromPier/histograms_ggH_May17/H125-LHC13-R04-MSbar-xmur025-xmuf050_1_5-xQ050-NNLO+NNLLmult.1_5.res
kappab=1.0
kappac=5.0
muR=0.5
muF=1.0
Q=1.0
binBoundaries=0.0,5.0,10.0,15.0,20.0,25.0,30.0,35.0,40.0,45.0,50.0,55.0,60.0,65.0,70.0,75.0,80.0,85.0,90.0,95.0,100.0,105.0,110.0,115.0,120.0,125.0,130.0,135.0,140.0,145.0,150.0,155.0,160.0,165.0,170.0,175.0,180.0,185.0,190.0,195.0,200.0,205.0,210.0,215.0,220.0,225.0,230.0,235.0,240.0,245.0
binCenters=2.75,7.5,12.5,17.5,22.5,27.5,32.5,37.5,42.5,47.5,52.5,57.5,62.5,67.5,72.5,77.5,82.5,87.5,92.5,97.5,102.5,107.5,112.5,117.5,122.5,127.5,132.5,137.5,142.5,147.5,152.5,157.5,162.5,167.5,172.5,177.5,182.5,187.5,192.5,197.5,202.5,207.5,212.5,217.5,222.5,227.5,232.5,237.5,242.5
crosssection=0.457111719,0.763348963,0.942126094,0.926451631,0.841453736,0.734343978,0.62822077,0.531357067,0.447414275,0.377100022,0.319254306,0.272082199,0.233863742,0.203282115,0.177751559,0.156176961,0.137532852,0.121522939,0.107699208,0.0957075692,0.0852640632,0.0761369687,0.0681346879,0.061099343,0.0548988131,0.049421429,0.0445747176,0.0402805638,0.0364738002,0.0331065165,0.0301776122,0.0276256837,0.0251291184,0.0228935169,0.0208833383,0.0190697505,0.0174289847,0.0159411738,0.0145895318,0.0133596797,0.0122391839,0.0112171837,0.010284136,0.00943159222,0.00865204626,0.00793879685,0.00728583482,0.00668774187,0.00613963428
crosssection_integrated=2.285558595,3.816744815,4.71063047,4.632258155,4.20726868,3.67171989,3.14110385,2.656785335,2.237071375,1.88550011,1.59627153,1.360410995,1.16931871,1.016410575,0.888757795,0.780884805,0.68766426,0.607614695,0.53849604,0.478537846,0.426320316,0.3806848435,0.3406734395,0.305496715,0.2744940655,0.247107145,0.222873588,0.201402819,0.182369001,0.1655325825,0.150888061,0.1381284185,0.125645592,0.1144675845,0.1044166915,0.0953487525,0.0871449235,0.079705869,0.072947659,0.0667983985,0.0611959195,0.0560859185,0.05142068,0.0471579611,0.0432602313,0.03969398425,0.0364291741,0.03343870935,0.0306981714
ratios=0.867217551402,0.788935651466,0.890475016748,0.973751704776,1.0459347766,1.1057790249,1.15578437367,1.19657216618,1.22754966565,1.2491546824,1.25914846679,1.25621083731,1.24227841711,1.23803204746,1.23845465736,1.23913015433,1.23763674183,1.2359135791,1.23394976872,1.23174387307,1.22929981338,1.22661953332,1.2236949751,1.22051369753,1.21704070509,1.21319017534,1.20875366975,1.20294952405,1.19121648315,1.18986245885,1.19133788873,1.19606033753,1.19160367072,1.18764155742,1.18401275078,1.18058722583,1.17726018602,1.17394740922,1.17058171016,1.16710896439,1.16348560944,1.15967609951,1.1556514784,1.15138770728,1.14686498127,1.14206664289,1.13697841563,1.13158710318,1.12588066671