file=suppliedInput/fromPier/histograms_ggH_May17/H125-LHC13-R04-MSbar-xmur025-xmuf025_-2_10-xQ050-NNLO+NNLLmult.-2_10.res
kappab=-2.0
kappac=10.0
muR=0.5
muF=0.5
Q=1.0
binBoundaries=0.0,5.0,10.0,15.0,20.0,25.0,30.0,35.0,40.0,45.0,50.0,55.0,60.0,65.0,70.0,75.0,80.0,85.0,90.0,95.0,100.0,105.0,110.0,115.0,120.0,125.0,130.0,135.0,140.0,145.0,150.0,155.0,160.0,165.0,170.0,175.0,180.0,185.0,190.0,195.0,200.0,205.0,210.0,215.0,220.0,225.0,230.0,235.0,240.0,245.0
binCenters=2.75,7.5,12.5,17.5,22.5,27.5,32.5,37.5,42.5,47.5,52.5,57.5,62.5,67.5,72.5,77.5,82.5,87.5,92.5,97.5,102.5,107.5,112.5,117.5,122.5,127.5,132.5,137.5,142.5,147.5,152.5,157.5,162.5,167.5,172.5,177.5,182.5,187.5,192.5,197.5,202.5,207.5,212.5,217.5,222.5,227.5,232.5,237.5,242.5
crosssection=0.547560413,1.07469889,1.18007219,1.06244777,0.916603289,0.776675112,0.652675345,0.545314344,0.454978115,0.380799295,0.320746431,0.272492069,0.233882787,0.202918576,0.177135942,0.155435551,0.136755389,0.120759565,0.106980731,0.0950502747,0.0846752462,0.0756176008,0.0676833588,0.0607113237,0.0545679133,0.0491422566,0.0443408098,0.0400853569,0.0363117445,0.0329719984,0.0300635371,0.027526022,0.0250492375,0.0228296292,0.0208321139,0.0190282401,0.017394608,0.0159118164,0.0145633868,0.0133352471,0.0122152062,0.0111926254,0.0102581687,0.00940354936,0.00862139757,0.0079051311,0.00724884173,0.00664721171,0.00609544337
crosssection_integrated=2.737802065,5.37349445,5.90036095,5.31223885,4.583016445,3.88337556,3.263376725,2.72657172,2.274890575,1.903996475,1.603732155,1.362460345,1.169413935,1.01459288,0.88567971,0.777177755,0.683776945,0.603797825,0.534903655,0.4752513735,0.423376231,0.378088004,0.338416794,0.3035566185,0.2728395665,0.245711283,0.221704049,0.2004267845,0.1815587225,0.164859992,0.1503176855,0.13763011,0.1252461875,0.114148146,0.1041605695,0.0951412005,0.08697304,0.079559082,0.072816934,0.0666762355,0.061076031,0.055963127,0.0512908435,0.0470177468,0.04310698785,0.0395256555,0.03624420865,0.03323605855,0.03047721685
ratios=1.03881388481,1.11072171446,1.11537596702,1.11669113924,1.13934636605,1.16952146915,1.20077527018,1.22800279957,1.24830222046,1.26140863074,1.26503345212,1.25810321813,1.24237958368,1.23581801632,1.23416544749,1.23324770226,1.23064047323,1.22814990666,1.22571791127,1.223284579,1.2208105085,1.21825215514,1.21558913109,1.21276266704,1.20970505423,1.20633709116,1.20241068146,1.19711981301,1.18592382321,1.18502782041,1.18683448443,1.19174546128,1.18781577923,1.18432727033,1.18110850521,1.17801736273,1.17493817352,1.17178545778,1.16848398289,1.16497451902,1.16120623288,1.15713716689,1.15273347454,1.14796429759,1.142802369,1.13722352487,1.13120552263,1.12472927176,1.11777697699