file=suppliedInput/fromPier/histograms_ggH_May17/H125-LHC13-R04-MSbar-xmur050-xmuf025_-1_-10-xQ050-NNLO+NNLLmult.-1_-10.res
kappab=-1.0
kappac=-10.0
muR=1.0
muF=0.5
Q=1.0
binBoundaries=0.0,5.0,10.0,15.0,20.0,25.0,30.0,35.0,40.0,45.0,50.0,55.0,60.0,65.0,70.0,75.0,80.0,85.0,90.0,95.0,100.0,105.0,110.0,115.0,120.0,125.0,130.0,135.0,140.0,145.0,150.0,155.0,160.0,165.0,170.0,175.0,180.0,185.0,190.0,195.0,200.0,205.0,210.0,215.0,220.0,225.0,230.0,235.0,240.0,245.0
binCenters=2.75,7.5,12.5,17.5,22.5,27.5,32.5,37.5,42.5,47.5,52.5,57.5,62.5,67.5,72.5,77.5,82.5,87.5,92.5,97.5,102.5,107.5,112.5,117.5,122.5,127.5,132.5,137.5,142.5,147.5,152.5,157.5,162.5,167.5,172.5,177.5,182.5,187.5,192.5,197.5,202.5,207.5,212.5,217.5,222.5,227.5,232.5,237.5,242.5
crosssection=0.720957945,1.34780009,1.30707985,1.0769092,0.867126171,0.697480004,0.562554569,0.454949427,0.370402451,0.30469464,0.254563106,0.216769649,0.188223544,0.163734514,0.143016739,0.125611948,0.110676126,0.0979008103,0.0869037734,0.0773851914,0.0691075119,0.0618786806,0.0555426215,0.0499702746,0.0450549274,0.040708078,0.0368552645,0.0334342508,0.0303938465,0.0276951723,0.0253319524,0.0232580153,0.0212526253,0.0194506683,0.017825083,0.0163537898,0.0150185207,0.0138040258,0.0126973059,0.011687212,0.0107640598,0.00991937981,0.00914572143,0.00843646615,0.00778572197,0.00718822211,0.0066392375,0.00613451016,0.00567019842
crosssection_integrated=3.604789725,6.73900045,6.53539925,5.384546,4.335630855,3.48740002,2.812772845,2.274747135,1.852012255,1.5234732,1.27281553,1.083848245,0.94111772,0.81867257,0.715083695,0.62805974,0.55338063,0.4895040515,0.434518867,0.386925957,0.3455375595,0.309393403,0.2777131075,0.249851373,0.225274637,0.20354039,0.1842763225,0.167171254,0.1519692325,0.1384758615,0.126659762,0.1162900765,0.1062631265,0.0972533415,0.089125415,0.081768949,0.0750926035,0.069020129,0.0634865295,0.05843606,0.053820299,0.04959689905,0.04572860715,0.04218233075,0.03892860985,0.03594111055,0.0331961875,0.0306725508,0.0283509921
ratios=1.36777806768,1.39297699164,1.23542056497,1.13189089889,1.07784585075,1.05026905894,1.03497339031,1.0245084806,1.01625591826,1.00930976943,1.00400445224,1.00083130493,0.999838813422,0.997178603772,0.996445530444,0.996623007094,0.995957242135,0.99567161435,0.995688762056,0.995937271945,0.996361753047,0.996908592714,0.997542205421,0.998200661805,0.998813590214,0.999296080379,0.999421614145,0.998489402645,0.992648167686,0.995376418146,1.00004316079,1.00696112835,1.00778331802,1.00903771551,1.01062029703,1.0124450937,1.01444271008,1.01656255229,1.01876018084,1.02100126652,1.02325684284,1.02550408331,1.02772527431,1.02990493985,1.03203006699,1.03408978068,1.0360747835,1.03797854587,1.03979593675