file=suppliedInput/fromPier/histograms_ggH_May17/H125-LHC13-R04-MSbar-xmur050-xmuf050_1_0-xQ050-NNLO+NNLLmult.1_0.res
kappab=1.0
kappac=0.0
muR=1.0
muF=1.0
Q=1.0
binBoundaries=0.0,5.0,10.0,15.0,20.0,25.0,30.0,35.0,40.0,45.0,50.0,55.0,60.0,65.0,70.0,75.0,80.0,85.0,90.0,95.0,100.0,105.0,110.0,115.0,120.0,125.0,130.0,135.0,140.0,145.0,150.0,155.0,160.0,165.0,170.0,175.0,180.0,185.0,190.0,195.0,200.0,205.0,210.0,215.0,220.0,225.0,230.0,235.0,240.0,245.0
binCenters=2.75,7.5,12.5,17.5,22.5,27.5,32.5,37.5,42.5,47.5,52.5,57.5,62.5,67.5,72.5,77.5,82.5,87.5,92.5,97.5,102.5,107.5,112.5,117.5,122.5,127.5,132.5,137.5,142.5,147.5,152.5,157.5,162.5,167.5,172.5,177.5,182.5,187.5,192.5,197.5,202.5,207.5,212.5,217.5,222.5,227.5,232.5,237.5,242.5
crosssection=0.536452295,0.980456997,1.06552608,0.955150752,0.806426674,0.665211117,0.544261399,0.444551797,0.364811955,0.30211176,0.253700244,0.216690248,0.188319992,0.164238226,0.143548972,0.126046809,0.11112572,0.0983206883,0.087270327,0.0776885944,0.0693460996,0.0620560732,0.0556647773,0.0500458262,0.04509434,0.0407232314,0.0368637541,0.0334727318,0.0306076095,0.0278132019,0.0253209522,0.0230880055,0.0210799061,0.019268483,0.0176303693,0.0161459114,0.0147983502,0.0135732426,0.0124580506,0.0114417863,0.0105147644,0.00966839332,0.0088950287,0.0081878377,0.00754070304,0.00694813339,0.00640518547,0.0059073936,0.0054507265
crosssection_integrated=2.682261475,4.902284985,5.3276304,4.77575376,4.03213337,3.326055585,2.721306995,2.222758985,1.824059775,1.5105588,1.26850122,1.08345124,0.94159996,0.82119113,0.71774486,0.630234045,0.5556286,0.4916034415,0.436351635,0.388442972,0.346730498,0.310280366,0.2783238865,0.250229131,0.2254717,0.203616157,0.1843187705,0.167363659,0.1530380475,0.1390660095,0.126604761,0.1154400275,0.1053995305,0.096342415,0.0881518465,0.080729557,0.073991751,0.067866213,0.062290253,0.0572089315,0.052573822,0.0483419666,0.0444751435,0.0409391885,0.0377035152,0.03474066695,0.03202592735,0.029536968,0.0272536325
ratios=1.01773992304,1.01332092812,1.00710972764,1.00391606206,1.00239581456,1.00167839915,1.00131808784,1.00109387783,1.00091753529,1.00075390505,1.00060129888,1.00046470838,1.00035114281,1.0002463188,1.00015377605,1.00007325593,1.00000306861,0.999941860988,0.999888502595,0.999842028794,0.999801605713,0.99976651091,0.999736116383,0.999709872185,0.999687320187,0.999668063877,0.999651830638,0.999638609515,0.999629562761,0.999618452795,0.99960889996,0.99960051491,0.999593104994,0.999586531821,0.999580706505,0.999575571173,0.999571048404,0.99956710747,0.999563685564,0.999560742419,0.999558235744,0.999556123331,0.999554368748,0.99955293413,0.999551781263,0.999550879683,0.99955019671,0.999549704688,0.999549371512