file=suppliedInput/fromPier/histograms_ggH_May17/H125-LHC13-R04-MSbar-xmur050-xmuf050_-1_10-xQ025-NNLO+NNLLmult.-1_10.res
kappab=-1.0
kappac=10.0
muR=1.0
muF=1.0
Q=0.5
binBoundaries=0.0,5.0,10.0,15.0,20.0,25.0,30.0,35.0,40.0,45.0,50.0,55.0,60.0,65.0,70.0,75.0,80.0,85.0,90.0,95.0,100.0,105.0,110.0,115.0,120.0,125.0,130.0,135.0,140.0,145.0,150.0,155.0,160.0,165.0,170.0,175.0,180.0,185.0,190.0,195.0,200.0,205.0,210.0,215.0,220.0,225.0,230.0,235.0,240.0,245.0
binCenters=2.75,7.5,12.5,17.5,22.5,27.5,32.5,37.5,42.5,47.5,52.5,57.5,62.5,67.5,72.5,77.5,82.5,87.5,92.5,97.5,102.5,107.5,112.5,117.5,122.5,127.5,132.5,137.5,142.5,147.5,152.5,157.5,162.5,167.5,172.5,177.5,182.5,187.5,192.5,197.5,202.5,207.5,212.5,217.5,222.5,227.5,232.5,237.5,242.5
crosssection=0.519440276,1.01610225,1.18301666,1.06182099,0.858312922,0.670166689,0.528891951,0.43100412,0.357313305,0.3001513,0.25484377,0.21830105,0.188417975,0.163826384,0.143002423,0.125425545,0.110470685,0.0976596432,0.0866217642,0.0770644574,0.0687537051,0.0614994843,0.0551457906,0.0495646827,0.0446502371,0.0403146915,0.0364888901,0.0331294491,0.0302936177,0.0275256649,0.025057707,0.0228469757,0.0208591779,0.0190663098,0.0174451607,0.0159762184,0.0146428511,0.01343073,0.0123274202,0.0113220274,0.0104049516,0.00956767921,0.00880263726,0.00810305854,0.00746288604,0.00687668384,0.00633955953,0.00584709419,0.00539529945
crosssection_integrated=2.59720138,5.08051125,5.9150833,5.30910495,4.29156461,3.350833445,2.644459755,2.1550206,1.786566525,1.5007565,1.27421885,1.09150525,0.942089875,0.81913192,0.715012115,0.627127725,0.552353425,0.488298216,0.433108821,0.385322287,0.3437685255,0.3074974215,0.275728953,0.2478234135,0.2232511855,0.2015734575,0.1824444505,0.1656472455,0.1514680885,0.1376283245,0.125288535,0.1142348785,0.1042958895,0.095331549,0.0872258035,0.079881092,0.0732142555,0.06715365,0.061637101,0.056610137,0.052024758,0.04783839605,0.0440131863,0.0405152927,0.0373144302,0.0343834192,0.03169779765,0.02923547095,0.02697649725
ratios=0.985465271461,1.0501609741,1.11815900954,1.11603235893,1.06689090073,1.00914052554,0.973041773716,0.97058562976,0.980343839245,0.994259824848,1.0051113994,1.00790182457,1.00087162609,0.997738111942,0.996345786077,0.995144059261,0.994108510532,0.993218894755,0.992457678062,0.991809467397,0.991260722005,0.990799476518,0.990415145868,0.990098603006,0.989842092649,0.989639284804,0.989486466502,0.989386723205,0.989374744078,0.9892842492,0.989216627082,0.989165074214,0.989126341729,0.989098440578,0.989080022141,0.989070064658,0.989067688481,0.989072127637,0.98908263935,0.989098539066,0.989119172684,0.989143906737,0.989172134963,0.989203283681,0.989236811883,0.989272225468,0.98930905357,0.98934685356,0.989385208442