file=suppliedInput/fromPier/histograms_ggH_May17/H125-LHC13-R04-MSbar-xmur100-xmuf050_1_0-xQ050-NNLO+NNLLmult.1_0.res
kappab=1.0
kappac=0.0
muR=2.0
muF=1.0
Q=1.0
binBoundaries=0.0,5.0,10.0,15.0,20.0,25.0,30.0,35.0,40.0,45.0,50.0,55.0,60.0,65.0,70.0,75.0,80.0,85.0,90.0,95.0,100.0,105.0,110.0,115.0,120.0,125.0,130.0,135.0,140.0,145.0,150.0,155.0,160.0,165.0,170.0,175.0,180.0,185.0,190.0,195.0,200.0,205.0,210.0,215.0,220.0,225.0,230.0,235.0,240.0,245.0
binCenters=2.75,7.5,12.5,17.5,22.5,27.5,32.5,37.5,42.5,47.5,52.5,57.5,62.5,67.5,72.5,77.5,82.5,87.5,92.5,97.5,102.5,107.5,112.5,117.5,122.5,127.5,132.5,137.5,142.5,147.5,152.5,157.5,162.5,167.5,172.5,177.5,182.5,187.5,192.5,197.5,202.5,207.5,212.5,217.5,222.5,227.5,232.5,237.5,242.5
crosssection=0.565618476,1.05141456,1.07471539,0.910016995,0.730295946,0.578074259,0.457103041,0.362737244,0.29130417,0.238355899,0.19946039,0.17154734,0.151359797,0.132224721,0.115650429,0.101631631,0.0896827409,0.079430516,0.0705846162,0.0629152199,0.0562382005,0.0504040841,0.0452906108,0.0407984679,0.0368489604,0.0333951703,0.0304193374,0.0276067749,0.0251034295,0.0228651236,0.0208564177,0.0190482289,0.0174164361,0.0159407308,0.0146038143,0.0133907957,0.0122887298,0.0112862801,0.0103734758,0.00954149028,0.00878248177,0.00808945495,0.00745615893,0.00687699108,0.00634692559,0.00586144644,0.00541648701,0.00500837576,0.0046338002
crosssection_integrated=2.82809238,5.2570728,5.37357695,4.550084975,3.65147973,2.890371295,2.285515205,1.81368622,1.45652085,1.191779495,0.99730195,0.8577367,0.756798985,0.661123605,0.578252145,0.508158155,0.4484137045,0.39715258,0.352923081,0.3145760995,0.2811910025,0.2520204205,0.226453054,0.2039923395,0.184244802,0.1669758515,0.152096687,0.1380338745,0.1255171475,0.114325618,0.1042820885,0.0952411445,0.0870821805,0.079703654,0.0730190715,0.0669539785,0.061443649,0.0564314005,0.051867379,0.0477074514,0.04391240885,0.04044727475,0.03728079465,0.0343849554,0.03173462795,0.0293072322,0.02708243505,0.0250418788,0.023169001
ratios=1.07307305719,1.08665691717,1.01579524334,0.956477996914,0.90776461551,0.870467260016,0.84096638821,0.816854271381,0.799237656168,0.789560779484,0.786677703429,0.792038686881,0.804019500516,0.805277149269,0.805775281109,0.806359771629,0.807041035154,0.807824877568,0.80871412569,0.809710635038,0.810817673765,0.812044860361,0.813416698063,0.814985668668,0.816897164344,0.819779867386,0.824895539293,0.824456104722,0.819865734856,0.821782388025,0.823360061246,0.824697456719,0.825874145575,0.826953518607,0.827985549665,0.829009396167,0.830055942975,0.831149540763,0.83230916583,0.833549837237,0.834883374417,0.836319330633,0.837865338485,0.839527707297,0.841311578692,0.8432212821,0.845260559851,0.847433039145,0.849742154118