file=suppliedInput/fromQianying/13tev-pth_quarkInduced_Apr18/higgs_plus_jet_13tev_1_1_mur100_muf025.pth
kappab=1.0
kappac=1.0
muR=2.0
muF=0.5
Q=1.0
binBoundaries=0.0,5.0,10.0,15.0,20.0,25.0,30.0,35.0,40.0,45.0,50.0,55.0,60.0,65.0,70.0,75.0,80.0,85.0,90.0,95.0,100.0,105.0,110.0,115.0,120.0
binCenters=3.0,7.5,12.5,17.5,22.5,27.5,32.5,37.5,42.5,47.5,52.5,57.5,62.5,67.5,72.5,77.5,82.5,87.5,92.5,97.5,102.5,107.5,112.5,117.5
crosssection=0.0,0.008744765181696795,0.02852875688408626,0.031183765876269073,0.018564058784281585,0.012927109995277223,0.010289195971216539,0.007250048206219471,0.005224907783244337,0.0037249391047837095,0.0028230150464442624,0.0025527532687401647,0.0014667031215056683,0.00183110877615641,0.0009606941335958681,0.0008870185301179203,0.0010373236758074045,0.0008671386548156834,0.0006397655050675184,0.0004254728163089844,0.0004942839222885767,0.00044738210968672245,0.0003959493770336471,0.00025551894145220356
crosssection_integrated=0.0,0.043723825908483976,0.1426437844204313,0.15591882938134538,0.09282029392140792,0.06463554997638611,0.051445979856082694,0.03625024103109735,0.026124538916221688,0.018624695523918548,0.014115075232221313,0.012763766343700824,0.0073335156075283415,0.00915554388078205,0.004803470667979341,0.004435092650589601,0.005186618379037023,0.004335693274078417,0.0031988275253375924,0.002127364081544922,0.002471419611442883,0.0022369105484336123,0.0019797468851682353,0.001277594707261018
ratios=0.0,0.7968153734490776,1.5744613327669925,0.82161783162238,0.8229128539180754,0.8206834716010378,0.8249978195642552,0.8307387851658735,0.8347384586938904,0.817130339134361,0.8605078826446332,0.874820055100603,0.8759534212164346,0.8256205568402476,0.8364024352134001,0.9561365484080436,0.7853442253922059,0.8533009741060349,0.9115075881256834,0.9208529912774809,1.0112958679963864,0.9283440431447205,0.8379191771910118,0.7327103614289437