file=suppliedInput/fromQianying/13tev-pth_quarkInduced_Apr18/higgs_plus_jet_13tev_m2_0.pth
kappab=-2.0
kappac=0.0
muR=1.0
muF=1.0
Q=1.0
binBoundaries=0.0,5.0,10.0,15.0,20.0,25.0,30.0,35.0,40.0,45.0,50.0,55.0,60.0,65.0,70.0,75.0,80.0,85.0,90.0,95.0,100.0,105.0,110.0,115.0,120.0
binCenters=3.0,7.5,12.5,17.5,22.5,27.5,32.5,37.5,42.5,47.5,52.5,57.5,62.5,67.5,72.5,77.5,82.5,87.5,92.5,97.5,102.5,107.5,112.5,117.5
crosssection=0.0,0.03981564903468693,0.06548672470852956,0.12262036479940075,0.08086201280395622,0.053992079875204047,0.03623955406489798,0.027488616233237173,0.02074408709771447,0.016133927855928376,0.013750655956329804,0.010148270391429749,0.009043372386214887,0.005904948560236156,0.005710092546640223,0.004811285210229772,0.0030800788398143856,0.002648123551991232,0.002386774282360893,0.0025679581304555894,0.0018255972893228556,0.001593395576765261,0.0013458413527819818,0.001100627428422801
crosssection_integrated=0.0,0.19907824517343464,0.3274336235426478,0.6131018239970037,0.4043100640197811,0.26996039937602023,0.18119777032448992,0.13744308116618587,0.10372043548857235,0.08066963927964188,0.06875327978164902,0.050741351957148746,0.04521686193107444,0.02952474280118078,0.028550462733201113,0.02405642605114886,0.015400394199071927,0.01324061775995616,0.011933871411804464,0.012839790652277947,0.009127986446614278,0.007966977883826306,0.006729206763909909,0.0055031371421140046
ratios=0.0,3.627967200433798,3.6141187743322503,3.230754060910188,3.5844741984121393,3.4277118062065925,2.9057229708869907,3.1497528024573085,3.3141039056206893,3.5392583797016393,4.191457589593756,3.4777785114296687,5.400938243662522,2.6624562024374017,4.9713380609783595,5.186188876690328,2.3318875169008133,2.605865156533191,3.400562944208106,5.557844908681709,3.735138676510974,3.306389012960294,2.8481072186581216,3.1560913499993086