file=suppliedInput/fromQianying/13tev-pth_quarkInduced_Apr18/higgs_plus_jet_13tev_0_1.pth
kappab=0.0
kappac=1.0
muR=1.0
muF=1.0
Q=1.0
binBoundaries=0.0,5.0,10.0,15.0,20.0,25.0,30.0,35.0,40.0,45.0,50.0,55.0,60.0,65.0,70.0,75.0,80.0,85.0,90.0,95.0,100.0,105.0,110.0,115.0,120.0
binCenters=3.0,7.5,12.5,17.5,22.5,27.5,32.5,37.5,42.5,47.5,52.5,57.5,62.5,67.5,72.5,77.5,82.5,87.5,92.5,97.5,102.5,107.5,112.5,117.5
crosssection=0.0,0.0024796416264593057,-0.004674036351815292,0.006315360293221661,0.0035494959339732457,0.003115535274099357,0.0015083145509322549,0.0018823304291468723,0.0011619915272315096,0.0004927976036052106,0.0006374527634849356,0.0006316031630131968,0.00010361501118894001,0.0007879749246010315,9.525466531492131e-05,0.0003326045481088889,0.00022038478206600647,3.399193715511906e-06,-1.9677825312314212e-05,0.00010573928747830989,-0.0001187120819353682,5.544152725730686e-05,7.006041327983153e-05,4.7214708344575594e-05
crosssection_integrated=0.0,0.012398208132296529,-0.023370181759076458,0.031576801466108306,0.01774747966986623,0.015577676370496785,0.007541572754661274,0.009411652145734362,0.005809957636157548,0.002463988018026053,0.003187263817424678,0.003158015815065984,0.0005180750559447,0.003939874623005157,0.0004762733265746066,0.0016630227405444445,0.0011019239103300324,1.699596857755953e-05,-9.838912656157106e-05,0.0005286964373915495,-0.000593560409676841,0.0002772076362865343,0.00035030206639915764,0.00023607354172287798
ratios=0.0,0.22594278148743516,-0.2579533883576076,0.16639467633957447,0.1573430607464846,0.19779117726835116,0.12093813930817988,0.21568475815771612,0.18564136568441153,0.10810374656632352,0.19430754663645833,0.21644830334175194,0.06188159158423144,0.35528653704059654,0.08293090511194129,0.3585216698588846,0.1668504440768135,0.0033449498445412415,-0.02803603343398938,0.22885208040938487,-0.2428827492236254,0.11504441160646166,0.14826381162385321,0.13538998643036923