file=suppliedInput/fromQianying/13tev-pth_quarkInduced_Apr18/higgs_plus_jet_13tev_m1_10.pth
kappab=-1.0
kappac=10.0
muR=1.0
muF=1.0
Q=1.0
binBoundaries=0.0,5.0,10.0,15.0,20.0,25.0,30.0,35.0,40.0,45.0,50.0,55.0,60.0,65.0,70.0,75.0,80.0,85.0,90.0,95.0,100.0,105.0,110.0,115.0,120.0
binCenters=3.0,7.5,12.5,17.5,22.5,27.5,32.5,37.5,42.5,47.5,52.5,57.5,62.5,67.5,72.5,77.5,82.5,87.5,92.5,97.5,102.5,107.5,112.5,117.5
crosssection=0.0,0.13454044553114042,0.3701693648946537,0.40114521518284874,0.24065210064046616,0.15223973678759362,0.10812765212000897,0.07398138269481891,0.057686273823994716,0.04336111022315847,0.03283533124584339,0.026073535730609932,0.022896217166861965,0.014549792170912013,0.014024976338376944,0.010771135491632895,0.008686134382668641,0.008191050610968887,0.00679842046910939,0.0056614978237233965,0.005345385838763095,0.0036753320823116197,0.0032630019727564394,0.002568777815578341
crosssection_integrated=0.0,0.6727022276557021,1.8508468244732685,2.005726075914244,1.2032605032023307,0.7611986839379681,0.5406382606000448,0.36990691347409455,0.2884313691199736,0.21680555111579236,0.16417665622921696,0.13036767865304966,0.11448108583430983,0.07274896085456006,0.07012488169188472,0.053855677458164476,0.04343067191334321,0.04095525305484443,0.03399210234554695,0.028307489118616982,0.026726929193815474,0.0183766604115581,0.016315009863782197,0.012843889077891704
ratios=0.0,12.259208008727752,20.429118379379904,10.569219355095358,10.667694454140879,9.665009097015206,8.669781145500195,8.47707521890165,9.216038501972399,9.51201555386212,10.008824218590195,8.935313977984542,13.674219046890936,6.560291595168541,12.210467362095324,11.610441001763679,6.5761590499704825,8.060338939425135,9.686067466560562,12.25320868043562,10.936561696278439,7.626529025896663,6.905256294802511,7.3660688753093115