file=suppliedInput/fromQianying/13tev-pth_quarkInduced_Apr18/higgs_plus_jet_13tev_1_1.pth
kappab=1.0
kappac=1.0
muR=1.0
muF=1.0
Q=1.0
binBoundaries=0.0,5.0,10.0,15.0,20.0,25.0,30.0,35.0,40.0,45.0,50.0,55.0,60.0,65.0,70.0,75.0,80.0,85.0,90.0,95.0,100.0,105.0,110.0,115.0,120.0
binCenters=3.0,7.5,12.5,17.5,22.5,27.5,32.5,37.5,42.5,47.5,52.5,57.5,62.5,67.5,72.5,77.5,82.5,87.5,92.5,97.5,102.5,107.5,112.5,117.5
crosssection=0.0,0.010974644156078961,0.018119693567798967,0.03795410064882976,0.022558960764671343,0.015751639264841355,0.012471785654719736,0.008727229708881179,0.006259335159206292,0.004558561745155343,0.003280638217709497,0.0029180324043286843,0.0016744076636733274,0.0022178575387757915,0.0011486027456995103,0.0009277111429270181,0.001320852235577792,0.0010162166470325967,0.0007018762250603494,0.0004620420635423408,0.0004887629208530919,0.0004819141276236741,0.0004725388650979479,0.0003487311697815851
crosssection_integrated=0.0,0.054873220780394805,0.09059846783899483,0.1897705032441488,0.11279480382335672,0.07875819632420678,0.06235892827359868,0.043636148544405895,0.03129667579603146,0.022792808725776714,0.016403191088547486,0.014590162021643422,0.008372038318366637,0.011089287693878958,0.005743013728497551,0.004638555714635091,0.006604261177888961,0.005081083235162983,0.003509381125301747,0.0023102103177117038,0.0024438146042654596,0.0024095706381183704,0.0023626943254897396,0.0017436558489079255
ratios=0.0,1.0,1.0,1.0,1.0,1.0,1.0,1.0,1.0,1.0,1.0,1.0,1.0,1.0,1.0,1.0,1.0,1.0,1.0,1.0,1.0,1.0,1.0,1.0