file=suppliedInput/fromQianying/13tev-pth_quarkInduced_Apr18/higgs_plus_jet_13tev_m1_m5.pth
kappab=-1.0
kappac=-5.0
muR=1.0
muF=1.0
Q=1.0
binBoundaries=0.0,5.0,10.0,15.0,20.0,25.0,30.0,35.0,40.0,45.0,50.0,55.0,60.0,65.0,70.0,75.0,80.0,85.0,90.0,95.0,100.0,105.0,110.0,115.0,120.0
binCenters=3.0,7.5,12.5,17.5,22.5,27.5,32.5,37.5,42.5,47.5,52.5,57.5,62.5,67.5,72.5,77.5,82.5,87.5,92.5,97.5,102.5,107.5,112.5,117.5
crosssection=0.0,0.04209234346407009,0.09898790599696072,0.12433525680580093,0.0763186680138851,0.04928575686143999,0.03356501269270373,0.024259677709542293,0.01865497205315536,0.013905997013078375,0.011175735603714347,0.008685782985763542,0.007556291098017254,0.0050885108558546,0.004663262913110113,0.003874512430095333,0.002733838740865912,0.002409515904289673,0.0020711313971664147,0.0020017715385852,0.0015507397672603895,0.0012199479160978275,0.00106828544757113,0.0008553566873320701
crosssection_integrated=0.0,0.21046171732035046,0.4949395299848036,0.6216762840290047,0.38159334006942547,0.24642878430719994,0.16782506346351866,0.12129838854771147,0.0932748602657768,0.06952998506539187,0.055878678018571735,0.04342891492881771,0.03778145549008627,0.025442554279273,0.023316314565550566,0.019372562150476665,0.013669193704329561,0.012047579521448366,0.010355656985832074,0.010008857692926,0.007753698836301948,0.0060997395804891375,0.00534142723785565,0.00427678343666035
ratios=0.0,3.835417610397394,5.463001105762351,3.2759373738351134,3.3830755241794916,3.1289287440354787,2.691275621787296,2.7797684395604567,2.9803440107720456,3.0505229040403177,3.4065736183239106,2.976588941534312,4.5128144489259014,2.294336208205395,4.059944076026164,4.176421141036285,2.069753653912714,2.3710651772194247,2.950849912302319,4.332444373653355,3.1727852115985233,2.5314632756532975,2.260735627215966,2.4527680960316545