{
    "ggH_0_5": 0.9907915739897232,
    "xH_0_5": 0.009208426010276717,
    "ggH_5_10": 0.9860358316031883,
    "xH_5_10": 0.013964168396811647,
    "ggH_10_15": 0.9779094246839727,
    "xH_10_15": 0.02209057531602736,
    "ggH_15_20": 0.9671079444720975,
    "xH_15_20": 0.03289205552790246,
    "ggH_20_25": 0.9532816161429183,
    "xH_20_25": 0.04671838385708163,
    "ggH_25_30": 0.9409081388131003,
    "xH_25_30": 0.059091861186899616,
    "ggH_30_35": 0.924655873632177,
    "xH_30_35": 0.07534412636782296,
    "ggH_35_45": 0.900790339887405,
    "xH_35_45": 0.09920966011259498,
    "ggH_45_60": 0.8595837664742387,
    "xH_45_60": 0.14041623352576124,
    "ggH_60_80": 0.8030522275401876,
    "xH_60_80": 0.19694777245981246,
    "ggH_80_100": 0.7507752073320941,
    "xH_80_100": 0.2492247926679059,
    "ggH_100_120": 0.7059790842339179,
    "xH_100_120": 0.2940209157660822,
    "ggH_120_140": 0.6577569946888714,
    "xH_120_140": 0.34224300531112856,
    "ggH_140_170": 0.6420034302737843,
    "xH_140_170": 0.3579965697262157,
    "ggH_170_200": 0.6143917875684427,
    "xH_170_200": 0.38560821243155735,
    "ggH_200_250": 0.6046851240420263,
    "xH_200_250": 0.3953148759579736,
    "ggH_250_350": 0.5673393863008351,
    "xH_250_350": 0.4326606136991648,
    "ggH_350_450": 0.5747742504796393,
    "xH_350_450": 0.4252257495203606,
    "ggH_450_10000": 0.4598334128205575,
    "xH_450_10000": 0.5401665871794425
}