file=suppliedInput/fromAgnieszka/SMEFTscaling_May16/ratio_ctcb09_new
ct=0.9
cg=0.0
cb=-1.79
muR=1.0
muF=1.0
Q=1.0
binBoundaries=1.0,6.0,11.0,16.0,21.0,26.0,31.0,36.0,41.0,46.0,51,60.0,70.0,80.0,90.0,100.0,110.0,120.0,130.0,140.0,150.0,160.0,170.0,180.0,190.0,200.0,210.0,220.0,230.0,240.0,250.0,260.0,270.0,280.0,290.0,300.0,310.0,320.0,330.0,340.0,350.0,360.0,370.0,380.0,390.0,400.0,410.0,420.0,430.0,440.0,450.0,460.0,470.0,480.0,490.0,500.0,510.0,520.0,530.0,540.0,550.0,560.0,570.0,580.0,590.0,600.0,610.0,620.0,630.0,640.0,650.0,660.0,670.0,680.0,690.0,700.0,710.0,720.0,730.0,740.0,750.0,760.0,770.0,780.0,790.0,800.0
binCenters=3.5,8.5,13.5,18.5,23.5,28.5,33.5,38.5,43.5,48.5,55.0,65.0,75.0,85.0,95.0,105.0,115.0,125.0,135.0,145.0,155.0,165.0,175.0,185.0,195.0,205.0,215.0,225.0,235.0,245.0,255.0,265.0,275.0,285.0,295.0,305.0,315.0,325.0,335.0,345.0,355.0,365.0,375.0,385.0,395.0,405.0,415.0,425.0,435.0,445.0,455.0,465.0,475.0,485.0,495.0,505.0,515.0,525.0,535.0,545.0,555.0,565.0,575.0,585.0,595.0,605.0,615.0,625.0,635.0,645.0,655.0,665.0,675.0,685.0,695.0,705.0,715.0,725.0,735.0,745.0,755.0,765.0,775.0,785.0,795.0
crosssection=0.57354333963,1.0867188162,1.07161129697,0.932861126652,0.764421672634,0.642777852268,0.481623747316,0.442539287674,0.363205015474,0.278873219785,0.232148221253,0.165384617954,0.116065286288,0.0855105660264,0.0630848501326,0.0510727806555,0.0378525167788,0.0290891871534,0.023928792985,0.0191259259713,0.0155492372034,0.0132139144814,0.0111141929148,0.00910899292841,0.00763755378937,0.00649865332009,0.00538029392384,0.00426132384628,0.00408815398972,0.00329366263264,0.00285452849112,0.00276110293171,0.0017120853576,0.00171046296521,0.00158789254282,0.00131487405317,0.00119612593146,0.000977205675221,0.000923621390534,0.000709667954727,0.000673516366561,0.000652562236028,0.000469422982308,0.000471667634115,0.000439967382349,0.000277117505998,0.000350561770947,0.000294083629596,0.000260360243399,0.000250889501126,0.000199577056056,0.000185227178308,0.000141410363097,0.000170294326051,0.000129254596323,0.000114906029075,0.000137308299944,7.69193977506e-05,8.69610681686e-05,7.52014931008e-05,8.8448593351e-05,5.9385877746e-05,6.80818211947e-05,5.94858232427e-05,4.3108624404e-05,5.35488760123e-05,4.0583629459e-05,3.71854801286e-05,4.07179188449e-05,2.88828211658e-05,2.84070686336e-05,3.14765592502e-05,2.78846649632e-05,2.59818087189e-05,1.86679844411e-05,2.48585708369e-05,1.61599913856e-05,1.65617919641e-05,1.31587298675e-05,1.76745792171e-05,1.2221116048e-05,1.35635017291e-05,1.25816938862e-05,9.2036002854e-06,9.72860435419e-06
crosssection_integrated=2.86771669815,5.43359408101,5.35805648485,4.66430563326,3.82210836317,3.21388926134,2.40811873658,2.21269643837,1.81602507737,1.39436609892,2.08933399128,1.65384617954,1.16065286288,0.855105660264,0.630848501326,0.510727806555,0.378525167788,0.290891871534,0.23928792985,0.191259259713,0.155492372034,0.132139144814,0.111141929148,0.0910899292841,0.0763755378937,0.0649865332009,0.0538029392384,0.0426132384628,0.0408815398972,0.0329366263264,0.0285452849112,0.0276110293171,0.017120853576,0.0171046296521,0.0158789254282,0.0131487405317,0.0119612593146,0.00977205675221,0.00923621390534,0.00709667954727,0.00673516366561,0.00652562236028,0.00469422982308,0.00471667634115,0.00439967382349,0.00277117505998,0.00350561770947,0.00294083629596,0.00260360243399,0.00250889501126,0.00199577056056,0.00185227178308,0.00141410363097,0.00170294326051,0.00129254596323,0.00114906029075,0.00137308299944,0.000769193977506,0.000869610681686,0.000752014931008,0.00088448593351,0.00059385877746,0.000680818211947,0.000594858232427,0.00043108624404,0.000535488760123,0.00040583629459,0.000371854801286,0.000407179188449,0.000288828211658,0.000284070686336,0.000314765592502,0.000278846649632,0.000259818087189,0.000186679844411,0.000248585708369,0.000161599913856,0.000165617919641,0.000131587298675,0.000176745792171,0.00012221116048,0.000135635017291,0.000125816938862,9.2036002854e-05,9.72860435419e-05
ratios=1.210232,1.164098,1.107828,1.06675,1.033944,1.0061896,0.9806662,0.957722,0.936675,0.9174804,0.893076,0.860993,0.832611333333,0.80804,0.788157,0.772119,0.758681333333,0.749658333333,0.743511666667,0.740839333333,0.739647,0.739897333333,0.740096333333,0.740258333333,0.742122666667,0.744758,0.744702333333,0.745170333333,0.746589666667,0.748223333333,0.748632333333,0.749739666667,0.750313,0.751543333333,0.752821333333,0.753760666667,0.754641,0.755771333333,0.756886333333,0.757319,0.758291333333,0.759248333333,0.760088,0.760884,0.761572333333,0.762258333333,0.762346333333,0.762464666667,0.763455666667,0.767117,0.767141333333,0.766117,0.766214,0.767178333333,0.767601333333,0.76824,0.770727333333,0.768987333333,0.770278666667,0.769874666667,0.769147666667,0.770011666667,0.771278666667,0.771453,0.773563666667,0.771774,0.773028,0.773434,0.773069,0.773573666667,0.773054666667,0.774243,0.774143,0.774568,0.775021666667,0.775133666667,0.775339666667,0.774255,0.776100333333,0.776012,0.776539,0.777091666667,0.776833666667,0.777059333333,0.777658