file=suppliedInput/fromAgnieszka/HRes_SMEFT_May16/SM_NNLO
ct=1.0
cg=0.0
cb=1.0
muR=1.0
muF=1.0
Q=1.0
binBoundaries=1.0,6.0,11.0,16.0,21.0,26.0,31.0,36.0,41.0,46.0,51,60.0,70.0,80.0,90.0,100.0,110.0,120.0,130.0,140.0,150.0,160.0,170.0,180.0,190.0,200.0,210.0,220.0,230.0,240.0,250.0,260.0,270.0,280.0,290.0,300.0,310.0,320.0,330.0,340.0,350.0,360.0,370.0,380.0,390.0,400.0,410.0,420.0,430.0,440.0,450.0,460.0,470.0,480.0,490.0,500.0,510.0,520.0,530.0,540.0,550.0,560.0,570.0,580.0,590.0,600.0,610.0,620.0,630.0,640.0,650.0,660.0,670.0,680.0,690.0,700.0,710.0,720.0,730.0,740.0,750.0,760.0,770.0,780.0,790.0,800.0
binCenters=3.5,8.5,13.5,18.5,23.5,28.5,33.5,38.5,43.5,48.5,55.0,65.0,75.0,85.0,95.0,105.0,115.0,125.0,135.0,145.0,155.0,165.0,175.0,185.0,195.0,205.0,215.0,225.0,235.0,245.0,255.0,265.0,275.0,285.0,295.0,305.0,315.0,325.0,335.0,345.0,355.0,365.0,375.0,385.0,395.0,405.0,415.0,425.0,435.0,445.0,455.0,465.0,475.0,485.0,495.0,505.0,515.0,525.0,535.0,545.0,555.0,565.0,575.0,585.0,595.0,605.0,615.0,625.0,635.0,645.0,655.0,665.0,675.0,685.0,695.0,705.0,715.0,725.0,735.0,745.0,755.0,765.0,775.0,785.0,795.0
crosssection=0.473911894273,0.933528634361,0.967308370044,0.874488986784,0.739325991189,0.638823788546,0.491118942731,0.462074889868,0.387759911894,0.303955506608,0.259942290749,0.192085903084,0.139399118943,0.105824669604,0.080040969163,0.0661462555066,0.0498925110132,0.0388032599119,0.0321834801762,0.0258165638767,0.0210225110132,0.0178591189427,0.0150172246696,0.012305154185,0.0102914977974,0.00872585903084,0.00722475770925,0.00571859030837,0.00547577092511,0.00440197797357,0.00381299118943,0.00368274889868,0.00228182819383,0.0022759339207,0.00210925550661,0.0017444185022,0.00158502643172,0.00129299118943,0.0012202907489,0.000937079295154,0.000888202643172,0.000859484581498,0.00061759030837,0.000619894273128,0.000577709251101,0.000363548017621,0.000459845814978,0.000385701321586,0.000341028634361,0.000327055066079,0.000260156828194,0.000241774008811,0.000184557268722,0.000221974889868,0.000168387665198,0.000149570484581,0.000178154185022,0.000100026872247,0.000112895594714,9.76801762115e-05,0.000114995594714,7.71233480176e-05,8.82713656388e-05,7.71088105727e-05,5.57273127753e-05,6.93841409692e-05,5.24995594714e-05,4.80784140969e-05,5.26704845815e-05,3.73368722467e-05,3.67465198238e-05,4.06546255507e-05,3.60200440529e-05,3.35436123348e-05,2.40870484581e-05,3.20700440529e-05,2.08424669604e-05,2.13906167401e-05,1.69549339207e-05,2.27761674009e-05,1.57379295154e-05,1.7454185022e-05,1.6196123348e-05,1.18441409692e-05,1.25101321586e-05
crosssection_integrated=2.36955947137,4.66764317181,4.83654185022,4.37244493392,3.69662995595,3.19411894273,2.45559471366,2.31037444934,1.93879955947,1.51977753304,2.33948061674,1.92085903084,1.39399118943,1.05824669604,0.80040969163,0.661462555066,0.498925110132,0.388032599119,0.321834801762,0.258165638767,0.210225110132,0.178591189427,0.150172246696,0.12305154185,0.102914977974,0.0872585903084,0.0722475770925,0.0571859030837,0.0547577092511,0.0440197797357,0.0381299118943,0.0368274889868,0.0228182819383,0.022759339207,0.0210925550661,0.017444185022,0.0158502643172,0.0129299118943,0.012202907489,0.00937079295154,0.00888202643172,0.00859484581498,0.0061759030837,0.00619894273128,0.00577709251101,0.00363548017621,0.00459845814978,0.00385701321586,0.00341028634361,0.00327055066079,0.00260156828194,0.00241774008811,0.00184557268722,0.00221974889868,0.00168387665198,0.00149570484581,0.00178154185022,0.00100026872247,0.00112895594714,0.000976801762115,0.00114995594714,0.000771233480176,0.000882713656388,0.000771088105727,0.000557273127753,0.000693841409692,0.000524995594714,0.000480784140969,0.000526704845815,0.000373368722467,0.000367465198238,0.000406546255507,0.000360200440529,0.000335436123348,0.000240870484581,0.000320700440529,0.000208424669604,0.000213906167401,0.000169549339207,0.000227761674009,0.000157379295154,0.00017454185022,0.00016196123348,0.000118441409692,0.000125101321586
ratios=1.0,1.0,1.0,1.0,1.0,1.0,1.0,1.0,1.0,1.0,1.0,1.0,1.0,1.0,1.0,1.0,1.0,1.0,1.0,1.0,1.0,1.0,1.0,1.0,1.0,1.0,1.0,1.0,1.0,1.0,1.0,1.0,1.0,1.0,1.0,1.0,1.0,1.0,1.0,1.0,1.0,1.0,1.0,1.0,1.0,1.0,1.0,1.0,1.0,1.0,1.0,1.0,1.0,1.0,1.0,1.0,1.0,1.0,1.0,1.0,1.0,1.0,1.0,1.0,1.0,1.0,1.0,1.0,1.0,1.0,1.0,1.0,1.0,1.0,1.0,1.0,1.0,1.0,1.0,1.0,1.0,1.0,1.0,1.0,1.0