file=suppliedInput/fromAgnieszka/ScaleVarNNLO_Jul17/HRes_mR2mF2.top
ct=1.0
cg=0.0
cb=1.0
muR=2.0
muF=2.0
Q=1.0
binBoundaries=1.0,6.0,11.0,16.0,21.0,26.0,31.0,36.0,41.0,46.0,51,60.0,70.0,80.0,90.0,100.0,110.0,120.0,130.0,140.0,150.0,160.0,170.0,180.0,190.0,200.0,210.0,220.0,230.0,240.0,250.0,260.0,270.0,280.0,290.0,300.0,310.0,320.0,330.0,340.0,350.0,360.0,370.0,380.0,390.0,400.0,410.0,420.0,430.0,440.0,450.0,460.0,470.0,480.0,490.0,500.0,510.0,520.0,530.0,540.0,550.0,560.0,570.0,580.0,590.0,600.0,610.0,620.0,630.0,640.0,650.0,660.0,670.0,680.0,690.0,700.0,710.0,720.0,730.0,740.0,750.0,760.0,770.0,780.0,790.0,800.0
binCenters=3.5,8.5,13.5,18.5,23.5,28.5,33.5,38.5,43.5,48.5,55.0,65.0,75.0,85.0,95.0,105.0,115.0,125.0,135.0,145.0,155.0,165.0,175.0,185.0,195.0,205.0,215.0,225.0,235.0,245.0,255.0,265.0,275.0,285.0,295.0,305.0,315.0,325.0,335.0,345.0,355.0,365.0,375.0,385.0,395.0,405.0,415.0,425.0,435.0,445.0,455.0,465.0,475.0,485.0,495.0,505.0,515.0,525.0,535.0,545.0,555.0,565.0,575.0,585.0,595.0,605.0,615.0,625.0,635.0,645.0,655.0,665.0,675.0,685.0,695.0,705.0,715.0,725.0,735.0,745.0,755.0,765.0,775.0,785.0,795.0
crosssection=0.430943612335,0.847969162996,0.906052863436,0.804224669604,0.684484581498,0.575145374449,0.484431718062,0.419797797357,0.340028193833,0.2798969163,0.241086784141,0.16914845815,0.125679295154,0.0948392070485,0.0644004405286,0.0624537444934,0.0428083259912,0.0332356828194,0.0261886343612,0.0217456387665,0.0171134801762,0.0145503524229,0.0119313656388,0.0100962114537,0.0107570044053,0.00438370044053,0.00642977973568,0.00457669603524,0.0042208722467,0.0036853876652,0.00297786784141,0.00271034801762,0.00214538325991,0.00197053303965,0.00177607048458,0.00141892511013,0.001328969163,0.00110161674009,0.00108458590308,0.000744740088106,0.000795317180617,0.000627911894273,0.000582251101322,0.000543612334802,0.000428190748899,0.000438844493392,0.000365513215859,0.000343411894273,0.000279700881057,0.000267266079295,0.000232295154185,0.000208966079295,0.000191451982379,0.000179614977974,0.00013381277533,0.000164864317181,0.000129254185022,0.000100793832599,0.000110333039648,8.6240969163e-05,9.65991189427e-05,7.53290748899e-05,8.03726872247e-05,6.36444933921e-05,6.6463876652e-05,5.60599118943e-05,4.38243171806e-05,7.09559471366e-05,2.49835242291e-05,4.00984140969e-05,3.43999118943e-05,3.58877973568e-05,3.19171806167e-05,2.79799118943e-05,2.45703524229e-05,2.78504845815e-05,2.3457753304e-05,3.51244933921e-06,3.5316123348e-05,1.83660352423e-05,1.94171806167e-05,1.67762555066e-05,1.25663436123e-05,1.37679295154e-05,1.37312334802e-05
crosssection_integrated=2.15471806167,4.23984581498,4.53026431718,4.02112334802,3.42242290749,2.87572687225,2.42215859031,2.09898898678,1.70014096916,1.3994845815,2.16978105727,1.6914845815,1.25679295154,0.948392070485,0.644004405286,0.624537444934,0.428083259912,0.332356828194,0.261886343612,0.217456387665,0.171134801762,0.145503524229,0.119313656388,0.100962114537,0.107570044053,0.0438370044053,0.0642977973568,0.0457669603524,0.042208722467,0.036853876652,0.0297786784141,0.0271034801762,0.0214538325991,0.0197053303965,0.0177607048458,0.0141892511013,0.01328969163,0.0110161674009,0.0108458590308,0.00744740088106,0.00795317180617,0.00627911894273,0.00582251101322,0.00543612334802,0.00428190748899,0.00438844493392,0.00365513215859,0.00343411894273,0.00279700881057,0.00267266079295,0.00232295154185,0.00208966079295,0.00191451982379,0.00179614977974,0.0013381277533,0.00164864317181,0.00129254185022,0.00100793832599,0.00110333039648,0.00086240969163,0.000965991189427,0.000753290748899,0.000803726872247,0.000636444933921,0.00066463876652,0.000560599118943,0.000438243171806,0.000709559471366,0.000249835242291,0.000400984140969,0.000343999118943,0.000358877973568,0.000319171806167,0.000279799118943,0.000245703524229,0.000278504845815,0.00023457753304,3.51244933921e-05,0.00035316123348,0.000183660352423,0.000194171806167,0.000167762555066,0.000125663436123,0.000137679295154,0.000137312334802
ratios=0.909332763204,0.908348316038,0.93667427213,0.919650998192,0.925822424282,0.90031928172,0.986383696315,0.908505972867,0.876903938242,0.920848315673,0.927462720462,0.880587567512,0.901578834267,0.896191855867,0.804593462599,0.944176567745,0.858011054602,0.856517800176,0.81372910008,0.842313441495,0.814054998732,0.814729577062,0.794512028772,0.820486383343,1.04523215348,0.502380387425,0.889964756527,0.80031892275,0.770827031376,0.837211746021,0.780979470833,0.735957865222,0.940203677784,0.865812940227,0.842036670767,0.813408656432,0.838452366725,0.851990909989,0.888793022534,0.794746071071,0.895423118509,0.730567956413,0.942778883396,0.876943631144,0.741187280769,1.20711562743,0.794860372659,0.890357058828,0.820168316896,0.817189846649,0.892904313901,0.864303323269,1.03735812577,0.809168001302,0.794670887401,1.10225167513,0.725518656809,1.00766754308,0.977301549519,0.882891211993,0.840024517315,0.976735020278,0.910518225736,0.825385489925,1.1926625086,0.80796434331,0.834755903133,1.47583792996,0.474336327596,1.07396285988,0.936140675613,0.882748195826,0.886094991164,0.834135322547,1.02006488946,0.868426764104,1.12547873285,0.164205145737,2.08294078368,0.806370752332,1.23378241069,0.961159486131,0.775885892094,1.16242533344,1.09760898655