[[4.33948543e-04 4.60848585e-04 2.23866198e-04]
 [1.46255177e-03 1.27294473e-03 1.11163687e-03]
 [2.52676904e-03 2.12776698e-03 1.81466080e-03]
 [3.28823850e-03 3.02569009e-03 2.47442424e-03]
 [4.16842699e-03 3.74755450e-03 3.24703939e-03]
 [5.46586476e-03 4.55632545e-03 3.59420888e-03]
 [5.81819043e-03 5.17205968e-03 4.34200242e-03]
 [6.93317801e-03 5.84522225e-03 4.80858125e-03]
 [7.97031373e-03 6.94619864e-03 5.85242709e-03]
 [8.30654055e-03 6.89389110e-03 6.21439517e-03]
 [7.37445354e-03 7.08640218e-03 6.10228442e-03]
 [6.67184442e-03 5.91962785e-03 5.40156960e-03]
 [5.46761826e-03 4.99365889e-03 4.41076718e-03]
 [4.15639331e-03 3.77744486e-03 3.45882202e-03]
 [2.76210954e-03 2.75408924e-03 2.45474478e-03]
 [1.63739175e-03 1.60835773e-03 1.50202632e-03]
 [9.07151774e-04 8.51104334e-04 8.30183327e-04]
 [4.55460101e-04 4.88862023e-04 4.54766788e-04]
 [2.67373584e-04 2.82085296e-04 2.47291811e-04]
 [1.67447291e-04 1.65564399e-04 1.26220156e-04]
 [1.03194760e-04 1.03543028e-04 9.07023251e-05]
 [5.94653375e-05 5.43157337e-05 5.70501387e-05]
 [3.11691617e-05 4.82012425e-05 3.64419562e-05]
 [2.50852527e-05 2.13071448e-05 2.25630985e-05]
 [1.34998071e-05 1.57178938e-05 1.34583423e-05]
 [8.01756512e-06 9.86199942e-06 1.24572671e-05]
 [2.34830705e-05 1.67547644e-05 2.16034520e-05]]